{
    "BaseStation_Substation": {
		"BaseStation1": [
			"SubStation_1",
            "SubStation_2",
            "SubStation_3",
            "SubStation_8"
        ],
		"BaseStation2": [
			"SubStation_4",
			"SubStation_5",
			"SubStation_10",
			"SubStation_11"
        ],
		"BaseStation3": [
			"SubStation_6",
			"SubStation_7",
			"SubStation_9",
            "SubStation_10"
        ],
		"BaseStation4": [
			"SubStation_3",
            "SubStation_7",
			"SubStation_8",
            "SubStation_9",
            "SubStation_14"
        ],
		"BaseStation5": [
            "SubStation_8",
			"SubStation_12",
			"SubStation_13",
			"SubStation_14"
        ]
    },

    "BaseStation_BaseStation": {
        "link1": [
            "BaseStation1",
            "BaseStation4"
        ],
		 "link2": [
            "BaseStation2",
            "BaseStation3"
        ],
		"link3": [
            "BaseStation3",
            "BaseStation4"
        ],
		"link4": [
            "BaseStation4",
            "BaseStation5"
        ]
    },
    "BaseStation_Bus": {
        "BaseStation1": 3,
		"BaseStation2": 10,
		"BaseStation3": 7,
		"BaseStation4": 8,
		"BaseStation5": 14
    }
}