{
    "agent_ied": {
        "agent1": "IED_Load_11",
        "agent2": "IED_Load_12",
        "agent3": "IED_Load_13",
        "agent4": "IED_Load_14",
        "agent5": "IED_Load_15",
        "agent6": "IED_Load_16",
        "agent7": "IED_Load_17",
        "agent8": "IED_Load_18",
        "agent9": "IED_Load_19",
        "agent10": "IED_Load_20",
        "agent11": "IED_Load_21",
        "agent12": "IED_Load_22",
        "agent13": "IED_Load_23",
        "agent14": "IED_Load_24",
        "agent15": "IED_Load_25",
        "agent16": "IED_Load_26",
        "agent17": "IED_Load_27",
        "agent18": "IED_Load_28",
        "agent19": "IED_Load_29",
        "agent20": "IED_Load_30",
        "agent21": "IED_Load_31",
        "agent22": "IED_Load_32",
        "agent23": "IED_Load_33",
        "agent24": "IED_Load_34",
        "agent25": "IED_Load_35",
        "agent26": "IED_Load_36",
        "agent27": "IED_Load_37",
        "agent28": "IED_Load_38",
        "agent29": "IED_Load_39",
        "agent30": "IED_Load_40",
        "agent31": "IED_Load_41",
        "agent32": "IED_Load_42",
        "agent33": "IED_Load_43",
        "agent34": "IED_Load_44",
        "agent35": "IED_Load_45",
        "agent36": "IED_Load_46",
        "agent37": "IED_Load_47",
        "agent38": "IED_Load_48",
        "agent39": "IED_Load_49",
        "agent40": "IED_Load_50",
        "agent41": "IED_Load_51",
        "agent42": "IED_Load_52",
        "agent43": "IED_Load_53",
        "agent44": "IED_Load_54",
        "agent45": "IED_Load_55",
        "agent46": "IED_Load_56",
        "agent47": "IED_Load_57",
        "agent48": "IED_Load_58",
        "agent49": "IED_Load_59",
        "agent50": "IED_Load_60",
        "agent51": "IED_Load_61",
        "agent52": "IED_Load_62",
        "agent53": "IED_Load_63",
        "agent54": "IED_Load_64",
        "agent55": "IED_Load_65",
        "agent56": "IED_Load_66",
        "agent57": "IED_Load_67",
        "agent58": "IED_Load_68",
        "agent59": "IED_Load_69",
        "agent60": "IED_Load_70",
        "agent61": "IED_Load_71",
        "agent62": "IED_Load_72",
        "agent63": "IED_Load_73",
        "agent64": "IED_Load_74",
        "agent65": "IED_Load_75",
        "agent66": "IED_Load_76",
        "agent67": "IED_Load_77",
        "agent68": "IED_Load_78",
        "agent69": "IED_Load_79",
        "agent70": "IED_Load_80",
        "agent71": "IED_Load_81",
        "agent72": "IED_Load_82",
        "agent73": "IED_Load_83",
        "agent74": "IED_Load_84",
        "agent75": "IED_Load_85",
        "agent76": "IED_Load_86",
        "agent77": "IED_Load_87",
        "agent78": "IED_Load_88",
        "agent79": "IED_Load_89",
        "agent80": "IED_Load_90",
        "agent81": "IED_Load_91",
        "agent82": "IED_Load_92",
        "agent83": "IED_Load_93",
        "agent84": "IED_Load_94",
        "agent85": "IED_Load_95",
        "agent86": "IED_Load_96",
        "agent87": "IED_Load_97",
        "agent88": "IED_Load_98",
        "agent89": "IED_Load_99",
        "agent90": "IED_Load_100",
        "agent91": "IED_Load_101",
        "agent92": "IED_Load_102",
        "agent93": "IED_Load_103",
        "agent94": "IED_Load_104",
        "agent95": "IED_Load_105",
        "agent96": "IED_Load_106",
        "agent97": "IED_Load_107",
        "agent98": "IED_Load_108",
        "agent99": "IED_Load_109",
        "agent100": "IED_Load_110",
        "agent101": "IED_Load_111",
        "agent102": "IED_Load_112",
        "agent103": "IED_Load_113",
        "agent104": "IED_Load_114",
        "agent105": "IED_Load_115",
        "agent106": "IED_Load_116",
        "agent107": "IED_Load_117",
        "agent108": "IED_Load_118",
        "agent109": "IED_Load_119",
        "agent110": "IED_Load_120",
        "agent111": "IED_Load_121",
        "agent112": "IED_Load_122",
        "agent113": "IED_Load_123",
        "agent114": "IED_Load_124",
        "agent115": "IED_Load_125",
        "agent116": "IED_Load_126",
        "agent117": "IED_Load_127",
        "agent118": "IED_Load_128",
        "agent119": "IED_Load_129",
        "agent120": "IED_Load_130",
        "agent121": "IED_Load_131",
        "agent122": "IED_Load_132",
        "agent123": "IED_Load_133",
        "agent124": "IED_Load_134",
        "agent125": "IED_Load_135",
        "agent126": "IED_Load_136",
        "agent127": "IED_Load_137",
        "agent128": "IED_Load_138",
        "agent129": "IED_Load_139",
        "agent130": "IED_Load_140",
        "agent131": "IED_Load_141",
        "agent132": "IED_Load_142",
        "agent133": "IED_Load_143",
        "agent134": "IED_SGen_11",
        "agent135": "IED_SGen_12",
        "agent136": "IED_SGen_13",
        "agent137": "IED_SGen_14",
        "agent138": "IED_SGen_15",
        "agent139": "IED_SGen_16",
        "agent140": "IED_SGen_17",
        "agent141": "IED_SGen_18",
        "agent142": "IED_SGen_19",
        "agent143": "IED_SGen_20",
        "agent144": "IED_SGen_21",
        "agent145": "IED_SGen_22",
        "agent146": "IED_SGen_23",
        "agent147": "IED_SGen_24",
        "agent148": "IED_SGen_25",
        "agent149": "IED_SGen_26",
        "agent150": "IED_SGen_27",
        "agent151": "IED_SGen_28",
        "agent152": "IED_SGen_29",
        "agent153": "IED_SGen_30",
        "agent154": "IED_SGen_31",
        "agent155": "IED_SGen_32",
        "agent156": "IED_SGen_33",
        "agent157": "IED_SGen_34",
        "agent158": "IED_SGen_35",
        "agent159": "IED_SGen_36",
        "agent160": "IED_SGen_37",
        "agent161": "IED_SGen_38",
        "agent162": "IED_SGen_39",
        "agent163": "IED_SGen_40",
        "agent164": "IED_SGen_41",
        "agent165": "IED_SGen_42",
        "agent166": "IED_SGen_43",
        "agent167": "IED_SGen_44",
        "agent168": "IED_SGen_45",
        "agent169": "IED_SGen_46",
        "agent170": "IED_SGen_47",
        "agent171": "IED_SGen_48",
        "agent172": "IED_SGen_49",
        "agent173": "IED_SGen_50",
        "agent174": "IED_SGen_51",
        "agent175": "IED_SGen_52",
        "agent176": "IED_SGen_53",
        "agent177": "IED_SGen_54",
        "agent178": "IED_SGen_55",
        "agent179": "IED_SGen_56",
        "agent180": "IED_SGen_57",
        "agent181": "IED_SGen_58",
        "agent182": "IED_SGen_59",
        "agent183": "IED_SGen_60",
        "agent184": "IED_SGen_61",
        "agent185": "IED_SGen_62",
        "agent186": "IED_SGen_63",
        "agent187": "IED_SGen_64",
        "agent188": "IED_SGen_65",
        "agent189": "IED_SGen_66",
        "agent190": "IED_SGen_67",
        "agent191": "IED_SGen_68",
        "agent192": "IED_SGen_69",
        "agent193": "IED_SGen_70",
        "agent194": "IED_SGen_71",
        "agent195": "IED_SGen_72",
        "agent196": "IED_SGen_73",
        "agent197": "IED_SGen_74",
        "agent198": "IED_SGen_75",
        "agent199": "IED_SGen_76",
        "agent200": "IED_SGen_77",
        "agent201": "IED_SGen_78",
        "agent202": "IED_SGen_79",
        "agent203": "IED_SGen_80",
        "agent204": "IED_SGen_81",
        "agent205": "IED_SGen_82",
        "agent206": "IED_SGen_83",
        "agent207": "IED_SGen_84",
        "agent208": "IED_SGen_85",
        "agent209": "IED_SGen_86.1",
        "agent210": "IED_SGen_87",
        "agent211": "IED_SGen_88",
        "agent212": "IED_SGen_89",
        "agent213": "IED_SGen_90",
        "agent214": "IED_SGen_91",
        "agent215": "IED_SGen_92",
        "agent216": "IED_SGen_93",
        "agent217": "IED_SGen_94",
        "agent218": "IED_SGen_95",
        "agent219": "IED_SGen_96",
        "agent220": "IED_SGen_97",
        "agent221": "IED_SGen_98",
        "agent222": "IED_SGen_99",
        "agent223": "IED_SGen_100",
        "agent224": "IED_SGen_101",
        "agent225": "IED_SGen_102",
        "agent226": "IED_SGen_103",
        "agent227": "IED_SGen_104",
        "agent228": "IED_SGen_105",
        "agent229": "IED_SGen_106",
        "agent230": "IED_SGen_107",
        "agent231": "IED_SGen_108",
        "agent232": "IED_SGen_109",
        "agent233": "IED_SGen_110",
        "agent234": "IED_SGen_111",
        "agent235": "IED_SGen_112",
        "agent236": "IED_SGen_113",
        "agent237": "IED_SGen_114",
        "agent238": "IED_SGen_115",
        "agent239": "IED_SGen_116",
        "agent240": "IED_SGen_117",
        "agent241": "IED_SGen_118",
        "agent242": "IED_SGen_119",
        "agent243": "IED_SGen_120",
        "agent244": "IED_SGen_121",
        "agent245": "IED_SGen_122",
        "agent246": "IED_SGen_123",
        "agent247": "IED_SGen_124",
        "agent248": "IED_SGen_125",
        "agent249": "IED_SGen_126",
        "agent250": "IED_SGen_127",
        "agent251": "IED_SGen_128",
        "agent252": "IED_SGen_129",
        "agent253": "IED_SGen_130",
        "agent254": "IED_SGen_131",
        "agent255": "IED_SGen_132",
        "agent256": "IED_SGen_133",
        "agent257": "IED_SGen_134",
        "agent258": "IED_SGen_135",
        "agent259": "IED_SGen_136",
        "agent260": "IED_SGen_137",
        "agent261": "IED_SGen_138",
        "agent262": "IED_SGen_139",
        "agent263": "IED_SGen_140",
        "agent264": "IED_SGen_141",
        "agent265": "IED_SGen_142",
        "agent266": "IED_SGen_143",
        "agent267": "IED_SGen_86.2",
        "agent268": "IED_Switch_11",
        "agent269": "IED_Switch_12",
        "agent270": "IED_Switch_13",
        "agent271": "IED_Switch_14",
        "agent272": "IED_Switch_15",
        "agent273": "IED_Switch_16",
        "agent274": "IED_Switch_17",
        "agent275": "IED_Switch_18",
        "agent276": "IED_Switch_19",
        "agent277": "IED_Switch_20",
        "agent278": "IED_Switch_21",
        "agent279": "IED_Switch_22",
        "agent280": "IED_Switch_23",
        "agent281": "IED_Switch_24",
        "agent282": "IED_Switch_25",
        "agent283": "IED_Switch_26",
        "agent284": "IED_Switch_27",
        "agent285": "IED_Switch_28",
        "agent286": "IED_Switch_29",
        "agent287": "IED_Switch_30",
        "agent288": "IED_Switch_31",
        "agent289": "IED_Switch_32",
        "agent290": "IED_Switch_33",
        "agent291": "IED_Switch_34",
        "agent292": "IED_Switch_35",
        "agent293": "IED_Switch_36",
        "agent294": "IED_Switch_37",
        "agent295": "IED_Switch_38",
        "agent296": "IED_Switch_39",
        "agent297": "IED_Switch_40",
        "agent298": "IED_Switch_41",
        "agent299": "IED_Switch_42",
        "agent300": "IED_Switch_43",
        "agent301": "IED_Switch_44",
        "agent302": "IED_Switch_45",
        "agent303": "IED_Switch_46",
        "agent304": "IED_Switch_47",
        "agent305": "IED_Switch_48",
        "agent306": "IED_Switch_49",
        "agent307": "IED_Switch_50",
        "agent308": "IED_Switch_51",
        "agent309": "IED_Switch_52",
        "agent310": "IED_Switch_53",
        "agent311": "IED_Switch_54",
        "agent312": "IED_Switch_55",
        "agent313": "IED_Switch_56",
        "agent314": "IED_Switch_57",
        "agent315": "IED_Switch_58",
        "agent316": "IED_Switch_59",
        "agent317": "IED_Switch_60",
        "agent318": "IED_Switch_61",
        "agent319": "IED_Switch_62",
        "agent320": "IED_Switch_63",
        "agent321": "IED_Switch_64",
        "agent322": "IED_Switch_65",
        "agent323": "IED_Switch_66",
        "agent324": "IED_Switch_67",
        "agent325": "IED_Switch_68",
        "agent326": "IED_Switch_69",
        "agent327": "IED_Switch_70",
        "agent328": "IED_Switch_71",
        "agent329": "IED_Switch_72",
        "agent330": "IED_Switch_73",
        "agent331": "IED_Switch_74",
        "agent332": "IED_Switch_75",
        "agent333": "IED_Switch_76",
        "agent334": "IED_Switch_77",
        "agent335": "IED_Switch_78",
        "agent336": "IED_Switch_79",
        "agent337": "IED_Switch_80",
        "agent338": "IED_Switch_81",
        "agent339": "IED_Switch_82",
        "agent340": "IED_Switch_83",
        "agent341": "IED_Switch_84",
        "agent342": "IED_Switch_85",
        "agent343": "IED_Switch_86",
        "agent344": "IED_Switch_87",
        "agent345": "IED_Switch_88",
        "agent346": "IED_Switch_89",
        "agent347": "IED_Switch_90",
        "agent348": "IED_Switch_91",
        "agent349": "IED_Switch_92",
        "agent350": "IED_Switch_93",
        "agent351": "IED_Switch_94",
        "agent352": "IED_Switch_95",
        "agent353": "IED_Switch_96",
        "agent354": "IED_Switch_97",
        "agent355": "IED_Switch_98",
        "agent356": "IED_Switch_99",
        "agent357": "IED_Switch_100",
        "agent358": "IED_Switch_101",
        "agent359": "IED_Switch_102",
        "agent360": "IED_Switch_103",
        "agent361": "IED_Switch_104",
        "agent362": "IED_Switch_105",
        "agent363": "IED_Switch_106",
        "agent364": "IED_Switch_107",
        "agent365": "IED_Switch_108",
        "agent366": "IED_Switch_109",
        "agent367": "IED_Switch_110",
        "agent368": "IED_Switch_111",
        "agent369": "IED_Switch_112",
        "agent370": "IED_Switch_113",
        "agent371": "IED_Switch_114",
        "agent372": "IED_Switch_115",
        "agent373": "IED_Switch_116",
        "agent374": "IED_Switch_117",
        "agent375": "IED_Switch_118",
        "agent376": "IED_Switch_119",
        "agent377": "IED_Switch_120",
        "agent378": "IED_Switch_121",
        "agent379": "IED_Switch_122",
        "agent380": "IED_Switch_123",
        "agent381": "IED_Switch_124",
        "agent382": "IED_Switch_125",
        "agent383": "IED_Switch_126",
        "agent384": "IED_Switch_127",
        "agent385": "IED_Switch_128",
        "agent386": "IED_Switch_129",
        "agent387": "IED_Switch_130",
        "agent388": "IED_Switch_131",
        "agent389": "IED_Switch_132",
        "agent390": "IED_Switch_133",
        "agent391": "IED_Switch_134",
        "agent392": "IED_Switch_135",
        "agent393": "IED_Switch_136",
        "agent394": "IED_Switch_137",
        "agent395": "IED_Switch_138",
        "agent396": "IED_Switch_139",
        "agent397": "IED_Switch_140",
        "agent398": "IED_Switch_141",
        "agent399": "IED_Switch_142",
        "agent400": "IED_Switch_143",
        "agent401": "IED_ICT_21",
        "agent402": "IED_ICT_119",
        "agent403": "IED_ICT_93",
        "agent404": "IED_ICT_118",
        "agent405": "IED_ICT_83",
        "agent406": "IED_ICT_131",
        "agent407": "IED_ICT_135",
        "agent408": "IED_ICT_19",
        "agent409": "IED_ICT_86",
        "agent410": "IED_ICT_125",
        "agent411": "IED_ICT_53",
        "agent412": "IED_ICT_100",
        "agent413": "IED_ICT_127",
        "agent414": "IED_ICT_80",
        "agent415": "IED_ICT_113",
        "agent416": "IED_ICT_128",
        "agent417": "IED_ICT_49",
        "agent418": "IED_ICT_69",
        "agent419": "IED_ICT_18",
        "agent420": "IED_ICT_139",
        "agent421": "IED_ICT_101"
    }
}