{
    "Basestation_Substation": {
        "Basestation_0": [
            "HV1 Bus 25",
            "MV3.101 node1",
            "MV3.101 BS busbar1A",
            "MV3.101 Bus 11",
            "MV3.101 Bus 22",
            "MV3.101 Bus 23",
            "MV3.101 Bus 24",
            "MV3.101 Bus 25",
            "MV3.101 Bus 26",
            "MV3.101 Bus 27",
            "MV3.101 Bus 28",
            "MV3.101 Bus 29",
            "MV3.101 Bus 30",
            "MV3.101 Bus 31",
            "MV3.101 Bus 36",
            "MV3.101 Bus 37",
            "MV3.101 Bus 38",
            "MV3.101 Bus 39",
            "MV3.101 Bus 40",
            "MV3.101 Bus 41",
            "MV3.101 Bus 42",
            "MV3.101 Bus 43",
            "MV3.101 Bus 44",
            "MV3.101 Bus 45",
            "MV3.101 Bus 46",
            "MV3.101 Bus 47",
            "MV3.101 Bus 48",
            "MV3.101 Bus 49",
            "MV3.101 Bus 50",
            "MV3.101 Bus 51",
            "MV3.101 Bus 52",
            "MV3.101 Bus 53",
            "MV3.101 Bus 54",
            "MV3.101 Bus 55",
            "MV3.101 Bus 56",
            "MV3.101 Bus 59",
            "MV3.101 Bus 60",
            "MV3.101 Bus 61",
            "MV3.101 Bus 62",
            "MV3.101 Bus 63",
            "MV3.101 Bus 77",
            "MV3.101 Bus 78",
            "MV3.101 Bus 79",
            "MV3.101 Bus 94",
            "MV3.101 Bus 95",
            "MV3.101 Bus 96",
            "MV3.101 Bus 105",
            "MV3.101 Bus 136",
            "MV3.101 Bus 137",
            "MV3.101 Bus 138",
            "MV3.101 Bus 50_1",
            "MV3.101 Bus 40_1"
        ],
        "Basestation_1": [
            "HV1 Bus 25",
            "MV3.101 node1",
            "MV3.101 BS busbar1A",
            "MV3.101 Bus 11",
            "MV3.101 Bus 12",
            "MV3.101 Bus 13",
            "MV3.101 Bus 14",
            "MV3.101 Bus 15",
            "MV3.101 Bus 16",
            "MV3.101 Bus 19",
            "MV3.101 Bus 20",
            "MV3.101 Bus 21",
            "MV3.101 Bus 22",
            "MV3.101 Bus 23",
            "MV3.101 Bus 24",
            "MV3.101 Bus 25",
            "MV3.101 Bus 26",
            "MV3.101 Bus 27",
            "MV3.101 Bus 36",
            "MV3.101 Bus 37",
            "MV3.101 Bus 38",
            "MV3.101 Bus 39",
            "MV3.101 Bus 40",
            "MV3.101 Bus 41",
            "MV3.101 Bus 42",
            "MV3.101 Bus 43",
            "MV3.101 Bus 44",
            "MV3.101 Bus 45",
            "MV3.101 Bus 51",
            "MV3.101 Bus 52",
            "MV3.101 Bus 53",
            "MV3.101 Bus 54",
            "MV3.101 Bus 59",
            "MV3.101 Bus 60",
            "MV3.101 Bus 61",
            "MV3.101 Bus 62",
            "MV3.101 Bus 63",
            "MV3.101 Bus 77",
            "MV3.101 Bus 78",
            "MV3.101 Bus 79",
            "MV3.101 Bus 80",
            "MV3.101 Bus 81",
            "MV3.101 Bus 82",
            "MV3.101 Bus 83",
            "MV3.101 Bus 94",
            "MV3.101 Bus 95",
            "MV3.101 Bus 96",
            "MV3.101 Bus 97",
            "MV3.101 Bus 98",
            "MV3.101 Bus 105",
            "MV3.101 Bus 106",
            "MV3.101 Bus 107",
            "MV3.101 Bus 108",
            "MV3.101 Bus 109",
            "MV3.101 Bus 110",
            "MV3.101 Bus 119",
            "MV3.101 Bus 125",
            "MV3.101 Bus 126",
            "MV3.101 Bus 130",
            "MV3.101 Bus 136",
            "MV3.101 Bus 137",
            "MV3.101 Bus 138",
            "MV3.101 Bus 40_1",
            "MV3.101 Bus 110_1"
        ],
        "Basestation_2": [
            "MV3.101 Bus 45",
            "MV3.101 Bus 46",
            "MV3.101 Bus 53",
            "MV3.101 Bus 54",
            "MV3.101 Bus 55",
            "MV3.101 Bus 56",
            "MV3.101 Bus 57",
            "MV3.101 Bus 58",
            "MV3.101 Bus 61",
            "MV3.101 Bus 62",
            "MV3.101 Bus 63",
            "MV3.101 Bus 64",
            "MV3.101 Bus 65",
            "MV3.101 Bus 66",
            "MV3.101 Bus 67",
            "MV3.101 Bus 68",
            "MV3.101 Bus 69",
            "MV3.101 Bus 70",
            "MV3.101 Bus 71",
            "MV3.101 Bus 72",
            "MV3.101 Bus 73",
            "MV3.101 Bus 74",
            "MV3.101 Bus 75",
            "MV3.101 Bus 76",
            "MV3.101 Bus 104",
            "MV3.101 Bus 104_1",
            "MV3.101 Bus 68_1",
            "MV3.101 Bus 75_1"
        ],
        "Basestation_3": [
            "HV1 Bus 25",
            "MV3.101 node1",
            "MV3.101 BS busbar1A",
            "MV3.101 Bus 11",
            "MV3.101 Bus 12",
            "MV3.101 Bus 13",
            "MV3.101 Bus 14",
            "MV3.101 Bus 15",
            "MV3.101 Bus 16",
            "MV3.101 Bus 17",
            "MV3.101 Bus 18",
            "MV3.101 Bus 19",
            "MV3.101 Bus 20",
            "MV3.101 Bus 21",
            "MV3.101 Bus 22",
            "MV3.101 Bus 23",
            "MV3.101 Bus 24",
            "MV3.101 Bus 25",
            "MV3.101 Bus 36",
            "MV3.101 Bus 37",
            "MV3.101 Bus 38",
            "MV3.101 Bus 39",
            "MV3.101 Bus 40",
            "MV3.101 Bus 41",
            "MV3.101 Bus 77",
            "MV3.101 Bus 78",
            "MV3.101 Bus 105",
            "MV3.101 Bus 106",
            "MV3.101 Bus 114",
            "MV3.101 Bus 119",
            "MV3.101 Bus 120",
            "MV3.101 Bus 121",
            "MV3.101 Bus 122",
            "MV3.101 Bus 123",
            "MV3.101 Bus 124",
            "MV3.101 Bus 125",
            "MV3.101 Bus 126",
            "MV3.101 Bus 127",
            "MV3.101 Bus 128",
            "MV3.101 Bus 129",
            "MV3.101 Bus 130",
            "MV3.101 Bus 131",
            "MV3.101 Bus 132",
            "MV3.101 Bus 133",
            "MV3.101 Bus 134",
            "MV3.101 Bus 135",
            "MV3.101 Bus 136",
            "MV3.101 Bus 137",
            "MV3.101 Bus 138",
            "MV3.101 Bus 139",
            "MV3.101 Bus 140",
            "MV3.101 Bus 18_1",
            "MV3.101 Bus 135_1",
            "MV3.101 Bus 114_1",
            "MV3.101 Bus 40_1"
        ],
        "Basestation_4": [
            "HV1 Bus 25",
            "MV3.101 node1",
            "MV3.101 Bus 11",
            "MV3.101 Bus 12",
            "MV3.101 Bus 13",
            "MV3.101 Bus 36",
            "MV3.101 Bus 41",
            "MV3.101 Bus 42",
            "MV3.101 Bus 43",
            "MV3.101 Bus 51",
            "MV3.101 Bus 52",
            "MV3.101 Bus 53",
            "MV3.101 Bus 54",
            "MV3.101 Bus 59",
            "MV3.101 Bus 60",
            "MV3.101 Bus 61",
            "MV3.101 Bus 62",
            "MV3.101 Bus 63",
            "MV3.101 Bus 64",
            "MV3.101 Bus 65",
            "MV3.101 Bus 66",
            "MV3.101 Bus 67",
            "MV3.101 Bus 68",
            "MV3.101 Bus 76",
            "MV3.101 Bus 77",
            "MV3.101 Bus 78",
            "MV3.101 Bus 79",
            "MV3.101 Bus 80",
            "MV3.101 Bus 81",
            "MV3.101 Bus 82",
            "MV3.101 Bus 83",
            "MV3.101 Bus 84",
            "MV3.101 Bus 85",
            "MV3.101 Bus 86",
            "MV3.101 Bus 94",
            "MV3.101 Bus 95",
            "MV3.101 Bus 96",
            "MV3.101 Bus 97",
            "MV3.101 Bus 98",
            "MV3.101 Bus 99",
            "MV3.101 Bus 100",
            "MV3.101 Bus 101",
            "MV3.101 Bus 102",
            "MV3.101 Bus 103",
            "MV3.101 Bus 104",
            "MV3.101 Bus 105",
            "MV3.101 Bus 106",
            "MV3.101 Bus 107",
            "MV3.101 Bus 108",
            "MV3.101 Bus 109",
            "MV3.101 Bus 110",
            "MV3.101 Bus 104_1",
            "MV3.101 Bus 68_1",
            "MV3.101 Bus 110_1"
        ],
        "Basestation_5": [
            "MV3.101 Bus 63",
            "MV3.101 Bus 64",
            "MV3.101 Bus 65",
            "MV3.101 Bus 66",
            "MV3.101 Bus 67",
            "MV3.101 Bus 68",
            "MV3.101 Bus 69",
            "MV3.101 Bus 70",
            "MV3.101 Bus 71",
            "MV3.101 Bus 72",
            "MV3.101 Bus 73",
            "MV3.101 Bus 74",
            "MV3.101 Bus 75",
            "MV3.101 Bus 76",
            "MV3.101 Bus 100",
            "MV3.101 Bus 101",
            "MV3.101 Bus 102",
            "MV3.101 Bus 103",
            "MV3.101 Bus 104",
            "MV3.101 Bus 104_1",
            "MV3.101 Bus 68_1",
            "MV3.101 Bus 75_1"
        ],
        "Basestation_6": [
            "HV1 Bus 25",
            "MV3.101 node1",
            "MV3.101 BS busbar1A",
            "MV3.101 Bus 11",
            "MV3.101 Bus 12",
            "MV3.101 Bus 18",
            "MV3.101 Bus 22",
            "MV3.101 Bus 23",
            "MV3.101 Bus 24",
            "MV3.101 Bus 25",
            "MV3.101 Bus 26",
            "MV3.101 Bus 27",
            "MV3.101 Bus 28",
            "MV3.101 Bus 29",
            "MV3.101 Bus 30",
            "MV3.101 Bus 31",
            "MV3.101 Bus 32",
            "MV3.101 Bus 33",
            "MV3.101 Bus 34",
            "MV3.101 Bus 35",
            "MV3.101 Bus 36",
            "MV3.101 Bus 37",
            "MV3.101 Bus 38",
            "MV3.101 Bus 39",
            "MV3.101 Bus 40",
            "MV3.101 Bus 41",
            "MV3.101 Bus 42",
            "MV3.101 Bus 43",
            "MV3.101 Bus 44",
            "MV3.101 Bus 45",
            "MV3.101 Bus 46",
            "MV3.101 Bus 47",
            "MV3.101 Bus 48",
            "MV3.101 Bus 49",
            "MV3.101 Bus 50",
            "MV3.101 Bus 51",
            "MV3.101 Bus 52",
            "MV3.101 Bus 53",
            "MV3.101 Bus 59",
            "MV3.101 Bus 60",
            "MV3.101 Bus 77",
            "MV3.101 Bus 78",
            "MV3.101 Bus 119",
            "MV3.101 Bus 120",
            "MV3.101 Bus 121",
            "MV3.101 Bus 125",
            "MV3.101 Bus 126",
            "MV3.101 Bus 127",
            "MV3.101 Bus 128",
            "MV3.101 Bus 129",
            "MV3.101 Bus 130",
            "MV3.101 Bus 131",
            "MV3.101 Bus 132",
            "MV3.101 Bus 133",
            "MV3.101 Bus 134",
            "MV3.101 Bus 135",
            "MV3.101 Bus 136",
            "MV3.101 Bus 137",
            "MV3.101 Bus 138",
            "MV3.101 Bus 139",
            "MV3.101 Bus 140",
            "MV3.101 Bus 141",
            "MV3.101 Bus 142",
            "MV3.101 Bus 143",
            "MV3.101 Bus 18_1",
            "MV3.101 Bus 50_1",
            "MV3.101 Bus 143_1",
            "MV3.101 Bus 135_1",
            "MV3.101 Bus 40_1"
        ],
        "Basestation_7": [
            "HV1 Bus 25",
            "MV3.101 node1",
            "MV3.101 BS busbar1A",
            "MV3.101 Bus 11",
            "MV3.101 Bus 12",
            "MV3.101 Bus 13",
            "MV3.101 Bus 14",
            "MV3.101 Bus 15",
            "MV3.101 Bus 16",
            "MV3.101 Bus 19",
            "MV3.101 Bus 20",
            "MV3.101 Bus 21",
            "MV3.101 Bus 22",
            "MV3.101 Bus 23",
            "MV3.101 Bus 24",
            "MV3.101 Bus 25",
            "MV3.101 Bus 26",
            "MV3.101 Bus 27",
            "MV3.101 Bus 36",
            "MV3.101 Bus 37",
            "MV3.101 Bus 38",
            "MV3.101 Bus 39",
            "MV3.101 Bus 40",
            "MV3.101 Bus 41",
            "MV3.101 Bus 42",
            "MV3.101 Bus 43",
            "MV3.101 Bus 44",
            "MV3.101 Bus 51",
            "MV3.101 Bus 52",
            "MV3.101 Bus 53",
            "MV3.101 Bus 54",
            "MV3.101 Bus 59",
            "MV3.101 Bus 60",
            "MV3.101 Bus 61",
            "MV3.101 Bus 62",
            "MV3.101 Bus 63",
            "MV3.101 Bus 77",
            "MV3.101 Bus 78",
            "MV3.101 Bus 79",
            "MV3.101 Bus 80",
            "MV3.101 Bus 81",
            "MV3.101 Bus 82",
            "MV3.101 Bus 83",
            "MV3.101 Bus 84",
            "MV3.101 Bus 85",
            "MV3.101 Bus 86",
            "MV3.101 Bus 87",
            "MV3.101 Bus 88",
            "MV3.101 Bus 89",
            "MV3.101 Bus 94",
            "MV3.101 Bus 95",
            "MV3.101 Bus 96",
            "MV3.101 Bus 97",
            "MV3.101 Bus 98",
            "MV3.101 Bus 99",
            "MV3.101 Bus 100",
            "MV3.101 Bus 101",
            "MV3.101 Bus 105",
            "MV3.101 Bus 106",
            "MV3.101 Bus 107",
            "MV3.101 Bus 108",
            "MV3.101 Bus 109",
            "MV3.101 Bus 110",
            "MV3.101 Bus 111",
            "MV3.101 Bus 112",
            "MV3.101 Bus 113",
            "MV3.101 Bus 114",
            "MV3.101 Bus 115",
            "MV3.101 Bus 116",
            "MV3.101 Bus 125",
            "MV3.101 Bus 136",
            "MV3.101 Bus 114_1",
            "MV3.101 Bus 40_1",
            "MV3.101 Bus 110_1"
        ],
        "Basestation_8": [
            "HV1 Bus 25",
            "MV3.101 node1",
            "MV3.101 BS busbar1A",
            "MV3.101 Bus 11",
            "MV3.101 Bus 12",
            "MV3.101 Bus 13",
            "MV3.101 Bus 14",
            "MV3.101 Bus 15",
            "MV3.101 Bus 16",
            "MV3.101 Bus 17",
            "MV3.101 Bus 18",
            "MV3.101 Bus 19",
            "MV3.101 Bus 20",
            "MV3.101 Bus 21",
            "MV3.101 Bus 22",
            "MV3.101 Bus 23",
            "MV3.101 Bus 24",
            "MV3.101 Bus 25",
            "MV3.101 Bus 26",
            "MV3.101 Bus 27",
            "MV3.101 Bus 28",
            "MV3.101 Bus 29",
            "MV3.101 Bus 30",
            "MV3.101 Bus 31",
            "MV3.101 Bus 32",
            "MV3.101 Bus 33",
            "MV3.101 Bus 34",
            "MV3.101 Bus 35",
            "MV3.101 Bus 36",
            "MV3.101 Bus 37",
            "MV3.101 Bus 38",
            "MV3.101 Bus 39",
            "MV3.101 Bus 40",
            "MV3.101 Bus 41",
            "MV3.101 Bus 42",
            "MV3.101 Bus 43",
            "MV3.101 Bus 44",
            "MV3.101 Bus 51",
            "MV3.101 Bus 52",
            "MV3.101 Bus 53",
            "MV3.101 Bus 59",
            "MV3.101 Bus 60",
            "MV3.101 Bus 61",
            "MV3.101 Bus 77",
            "MV3.101 Bus 78",
            "MV3.101 Bus 79",
            "MV3.101 Bus 80",
            "MV3.101 Bus 81",
            "MV3.101 Bus 82",
            "MV3.101 Bus 83",
            "MV3.101 Bus 94",
            "MV3.101 Bus 95",
            "MV3.101 Bus 96",
            "MV3.101 Bus 105",
            "MV3.101 Bus 106",
            "MV3.101 Bus 107",
            "MV3.101 Bus 108",
            "MV3.101 Bus 109",
            "MV3.101 Bus 110",
            "MV3.101 Bus 112",
            "MV3.101 Bus 113",
            "MV3.101 Bus 114",
            "MV3.101 Bus 115",
            "MV3.101 Bus 116",
            "MV3.101 Bus 119",
            "MV3.101 Bus 120",
            "MV3.101 Bus 121",
            "MV3.101 Bus 122",
            "MV3.101 Bus 123",
            "MV3.101 Bus 124",
            "MV3.101 Bus 125",
            "MV3.101 Bus 126",
            "MV3.101 Bus 127",
            "MV3.101 Bus 128",
            "MV3.101 Bus 129",
            "MV3.101 Bus 130",
            "MV3.101 Bus 131",
            "MV3.101 Bus 132",
            "MV3.101 Bus 133",
            "MV3.101 Bus 134",
            "MV3.101 Bus 135",
            "MV3.101 Bus 136",
            "MV3.101 Bus 137",
            "MV3.101 Bus 138",
            "MV3.101 Bus 139",
            "MV3.101 Bus 140",
            "MV3.101 Bus 141",
            "MV3.101 Bus 142",
            "MV3.101 Bus 143",
            "MV3.101 Bus 18_1",
            "MV3.101 Bus 143_1",
            "MV3.101 Bus 135_1",
            "MV3.101 Bus 114_1",
            "MV3.101 Bus 40_1",
            "MV3.101 Bus 110_1"
        ],
        "Basestation_9": [
            "HV1 Bus 25",
            "MV3.101 node1",
            "MV3.101 Bus 11",
            "MV3.101 Bus 12",
            "MV3.101 Bus 13",
            "MV3.101 Bus 14",
            "MV3.101 Bus 19",
            "MV3.101 Bus 22",
            "MV3.101 Bus 23",
            "MV3.101 Bus 24",
            "MV3.101 Bus 26",
            "MV3.101 Bus 36",
            "MV3.101 Bus 37",
            "MV3.101 Bus 38",
            "MV3.101 Bus 40",
            "MV3.101 Bus 41",
            "MV3.101 Bus 42",
            "MV3.101 Bus 43",
            "MV3.101 Bus 44",
            "MV3.101 Bus 51",
            "MV3.101 Bus 52",
            "MV3.101 Bus 53",
            "MV3.101 Bus 54",
            "MV3.101 Bus 59",
            "MV3.101 Bus 60",
            "MV3.101 Bus 61",
            "MV3.101 Bus 62",
            "MV3.101 Bus 63",
            "MV3.101 Bus 77",
            "MV3.101 Bus 78",
            "MV3.101 Bus 79",
            "MV3.101 Bus 80",
            "MV3.101 Bus 81",
            "MV3.101 Bus 82",
            "MV3.101 Bus 83",
            "MV3.101 Bus 84",
            "MV3.101 Bus 94",
            "MV3.101 Bus 95",
            "MV3.101 Bus 96",
            "MV3.101 Bus 97",
            "MV3.101 Bus 98",
            "MV3.101 Bus 99",
            "MV3.101 Bus 100",
            "MV3.101 Bus 105",
            "MV3.101 Bus 106",
            "MV3.101 Bus 107",
            "MV3.101 Bus 108",
            "MV3.101 Bus 109",
            "MV3.101 Bus 110",
            "MV3.101 Bus 40_1",
            "MV3.101 Bus 110_1"
        ],
        "Basestation_10": [
            "MV3.101 Bus 21",
            "MV3.101 Bus 86",
            "MV3.101 Bus 87",
            "MV3.101 Bus 88",
            "MV3.101 Bus 89",
            "MV3.101 Bus 90",
            "MV3.101 Bus 91",
            "MV3.101 Bus 92",
            "MV3.101 Bus 93",
            "MV3.101 Bus 110",
            "MV3.101 Bus 111",
            "MV3.101 Bus 112",
            "MV3.101 Bus 113",
            "MV3.101 Bus 114",
            "MV3.101 Bus 115",
            "MV3.101 Bus 116",
            "MV3.101 Bus 117",
            "MV3.101 Bus 118",
            "MV3.101 Bus 118_1",
            "MV3.101 Bus 114_1",
            "MV3.101 Bus 110_1"
        ],
        "Basestation_11": [
            "MV3.101 Bus 43",
            "MV3.101 Bus 52",
            "MV3.101 Bus 53",
            "MV3.101 Bus 54",
            "MV3.101 Bus 55",
            "MV3.101 Bus 59",
            "MV3.101 Bus 60",
            "MV3.101 Bus 61",
            "MV3.101 Bus 62",
            "MV3.101 Bus 63",
            "MV3.101 Bus 64",
            "MV3.101 Bus 65",
            "MV3.101 Bus 66",
            "MV3.101 Bus 67",
            "MV3.101 Bus 68",
            "MV3.101 Bus 69",
            "MV3.101 Bus 70",
            "MV3.101 Bus 71",
            "MV3.101 Bus 72",
            "MV3.101 Bus 73",
            "MV3.101 Bus 74",
            "MV3.101 Bus 75",
            "MV3.101 Bus 76",
            "MV3.101 Bus 79",
            "MV3.101 Bus 80",
            "MV3.101 Bus 81",
            "MV3.101 Bus 82",
            "MV3.101 Bus 83",
            "MV3.101 Bus 94",
            "MV3.101 Bus 95",
            "MV3.101 Bus 96",
            "MV3.101 Bus 97",
            "MV3.101 Bus 98",
            "MV3.101 Bus 99",
            "MV3.101 Bus 100",
            "MV3.101 Bus 101",
            "MV3.101 Bus 102",
            "MV3.101 Bus 103",
            "MV3.101 Bus 104",
            "MV3.101 Bus 104_1",
            "MV3.101 Bus 68_1",
            "MV3.101 Bus 75_1"
        ],
        "Basestation_12": [
            "MV3.101 BS busbar1A",
            "MV3.101 Bus 18",
            "MV3.101 Bus 28",
            "MV3.101 Bus 29",
            "MV3.101 Bus 30",
            "MV3.101 Bus 31",
            "MV3.101 Bus 32",
            "MV3.101 Bus 33",
            "MV3.101 Bus 34",
            "MV3.101 Bus 35",
            "MV3.101 Bus 119",
            "MV3.101 Bus 120",
            "MV3.101 Bus 121",
            "MV3.101 Bus 122",
            "MV3.101 Bus 123",
            "MV3.101 Bus 124",
            "MV3.101 Bus 125",
            "MV3.101 Bus 126",
            "MV3.101 Bus 127",
            "MV3.101 Bus 128",
            "MV3.101 Bus 129",
            "MV3.101 Bus 130",
            "MV3.101 Bus 131",
            "MV3.101 Bus 132",
            "MV3.101 Bus 133",
            "MV3.101 Bus 134",
            "MV3.101 Bus 135",
            "MV3.101 Bus 136",
            "MV3.101 Bus 137",
            "MV3.101 Bus 138",
            "MV3.101 Bus 139",
            "MV3.101 Bus 140",
            "MV3.101 Bus 141",
            "MV3.101 Bus 142",
            "MV3.101 Bus 143",
            "MV3.101 Bus 18_1",
            "MV3.101 Bus 143_1",
            "MV3.101 Bus 135_1"
        ],
        "Basestation_13": [
            "MV3.101 BS busbar1A",
            "MV3.101 Bus 24",
            "MV3.101 Bus 25",
            "MV3.101 Bus 26",
            "MV3.101 Bus 27",
            "MV3.101 Bus 28",
            "MV3.101 Bus 29",
            "MV3.101 Bus 30",
            "MV3.101 Bus 31",
            "MV3.101 Bus 32",
            "MV3.101 Bus 33",
            "MV3.101 Bus 34",
            "MV3.101 Bus 35",
            "MV3.101 Bus 38",
            "MV3.101 Bus 39",
            "MV3.101 Bus 40",
            "MV3.101 Bus 125",
            "MV3.101 Bus 126",
            "MV3.101 Bus 127",
            "MV3.101 Bus 128",
            "MV3.101 Bus 129",
            "MV3.101 Bus 130",
            "MV3.101 Bus 131",
            "MV3.101 Bus 132",
            "MV3.101 Bus 133",
            "MV3.101 Bus 136",
            "MV3.101 Bus 137",
            "MV3.101 Bus 138",
            "MV3.101 Bus 139",
            "MV3.101 Bus 140",
            "MV3.101 Bus 141",
            "MV3.101 Bus 142",
            "MV3.101 Bus 143",
            "MV3.101 Bus 143_1",
            "MV3.101 Bus 40_1"
        ],
        "Basestation_14": [
            "MV3.101 Bus 65",
            "MV3.101 Bus 66",
            "MV3.101 Bus 67",
            "MV3.101 Bus 68",
            "MV3.101 Bus 69",
            "MV3.101 Bus 70",
            "MV3.101 Bus 71",
            "MV3.101 Bus 72",
            "MV3.101 Bus 73",
            "MV3.101 Bus 74",
            "MV3.101 Bus 75",
            "MV3.101 Bus 76",
            "MV3.101 Bus 104",
            "MV3.101 Bus 104_1",
            "MV3.101 Bus 68_1",
            "MV3.101 Bus 75_1"
        ],
        "Basestation_15": [
            "MV3.101 Bus 84",
            "MV3.101 Bus 85",
            "MV3.101 Bus 86",
            "MV3.101 Bus 87",
            "MV3.101 Bus 88",
            "MV3.101 Bus 89",
            "MV3.101 Bus 90",
            "MV3.101 Bus 91",
            "MV3.101 Bus 92",
            "MV3.101 Bus 108",
            "MV3.101 Bus 109",
            "MV3.101 Bus 110",
            "MV3.101 Bus 111",
            "MV3.101 Bus 112",
            "MV3.101 Bus 113",
            "MV3.101 Bus 110_1"
        ],
        "Basestation_16": [
            "HV1 Bus 25",
            "MV3.101 node1",
            "MV3.101 BS busbar1A",
            "MV3.101 Bus 11",
            "MV3.101 Bus 12",
            "MV3.101 Bus 13",
            "MV3.101 Bus 14",
            "MV3.101 Bus 15",
            "MV3.101 Bus 19",
            "MV3.101 Bus 22",
            "MV3.101 Bus 23",
            "MV3.101 Bus 24",
            "MV3.101 Bus 25",
            "MV3.101 Bus 26",
            "MV3.101 Bus 27",
            "MV3.101 Bus 28",
            "MV3.101 Bus 29",
            "MV3.101 Bus 36",
            "MV3.101 Bus 37",
            "MV3.101 Bus 38",
            "MV3.101 Bus 39",
            "MV3.101 Bus 40",
            "MV3.101 Bus 41",
            "MV3.101 Bus 42",
            "MV3.101 Bus 43",
            "MV3.101 Bus 44",
            "MV3.101 Bus 45",
            "MV3.101 Bus 46",
            "MV3.101 Bus 47",
            "MV3.101 Bus 48",
            "MV3.101 Bus 49",
            "MV3.101 Bus 50",
            "MV3.101 Bus 51",
            "MV3.101 Bus 52",
            "MV3.101 Bus 53",
            "MV3.101 Bus 54",
            "MV3.101 Bus 55",
            "MV3.101 Bus 56",
            "MV3.101 Bus 57",
            "MV3.101 Bus 59",
            "MV3.101 Bus 60",
            "MV3.101 Bus 61",
            "MV3.101 Bus 62",
            "MV3.101 Bus 63",
            "MV3.101 Bus 64",
            "MV3.101 Bus 65",
            "MV3.101 Bus 66",
            "MV3.101 Bus 67",
            "MV3.101 Bus 68",
            "MV3.101 Bus 69",
            "MV3.101 Bus 70",
            "MV3.101 Bus 75",
            "MV3.101 Bus 77",
            "MV3.101 Bus 78",
            "MV3.101 Bus 79",
            "MV3.101 Bus 80",
            "MV3.101 Bus 81",
            "MV3.101 Bus 82",
            "MV3.101 Bus 83",
            "MV3.101 Bus 94",
            "MV3.101 Bus 95",
            "MV3.101 Bus 96",
            "MV3.101 Bus 97",
            "MV3.101 Bus 98",
            "MV3.101 Bus 99",
            "MV3.101 Bus 100",
            "MV3.101 Bus 101",
            "MV3.101 Bus 105",
            "MV3.101 Bus 106",
            "MV3.101 Bus 107",
            "MV3.101 Bus 108",
            "MV3.101 Bus 109",
            "MV3.101 Bus 125",
            "MV3.101 Bus 126",
            "MV3.101 Bus 130",
            "MV3.101 Bus 136",
            "MV3.101 Bus 137",
            "MV3.101 Bus 138",
            "MV3.101 Bus 50_1",
            "MV3.101 Bus 40_1",
            "MV3.101 Bus 68_1",
            "MV3.101 Bus 75_1"
        ],
        "Basestation_17": [
            "HV1 Bus 25",
            "MV3.101 node1",
            "MV3.101 BS busbar1A",
            "MV3.101 Bus 11",
            "MV3.101 Bus 12",
            "MV3.101 Bus 13",
            "MV3.101 Bus 14",
            "MV3.101 Bus 15",
            "MV3.101 Bus 16",
            "MV3.101 Bus 17",
            "MV3.101 Bus 18",
            "MV3.101 Bus 19",
            "MV3.101 Bus 22",
            "MV3.101 Bus 23",
            "MV3.101 Bus 24",
            "MV3.101 Bus 25",
            "MV3.101 Bus 26",
            "MV3.101 Bus 27",
            "MV3.101 Bus 28",
            "MV3.101 Bus 29",
            "MV3.101 Bus 30",
            "MV3.101 Bus 31",
            "MV3.101 Bus 36",
            "MV3.101 Bus 37",
            "MV3.101 Bus 38",
            "MV3.101 Bus 39",
            "MV3.101 Bus 40",
            "MV3.101 Bus 41",
            "MV3.101 Bus 42",
            "MV3.101 Bus 43",
            "MV3.101 Bus 44",
            "MV3.101 Bus 45",
            "MV3.101 Bus 51",
            "MV3.101 Bus 52",
            "MV3.101 Bus 53",
            "MV3.101 Bus 59",
            "MV3.101 Bus 60",
            "MV3.101 Bus 77",
            "MV3.101 Bus 78",
            "MV3.101 Bus 79",
            "MV3.101 Bus 80",
            "MV3.101 Bus 81",
            "MV3.101 Bus 94",
            "MV3.101 Bus 95",
            "MV3.101 Bus 105",
            "MV3.101 Bus 106",
            "MV3.101 Bus 119",
            "MV3.101 Bus 120",
            "MV3.101 Bus 121",
            "MV3.101 Bus 125",
            "MV3.101 Bus 126",
            "MV3.101 Bus 127",
            "MV3.101 Bus 128",
            "MV3.101 Bus 130",
            "MV3.101 Bus 131",
            "MV3.101 Bus 132",
            "MV3.101 Bus 136",
            "MV3.101 Bus 137",
            "MV3.101 Bus 138",
            "MV3.101 Bus 139",
            "MV3.101 Bus 140",
            "MV3.101 Bus 18_1",
            "MV3.101 Bus 40_1"
        ],
        "Basestation_18": [
            "MV3.101 BS busbar1A",
            "MV3.101 Bus 14",
            "MV3.101 Bus 15",
            "MV3.101 Bus 16",
            "MV3.101 Bus 17",
            "MV3.101 Bus 18",
            "MV3.101 Bus 19",
            "MV3.101 Bus 20",
            "MV3.101 Bus 23",
            "MV3.101 Bus 24",
            "MV3.101 Bus 25",
            "MV3.101 Bus 34",
            "MV3.101 Bus 35",
            "MV3.101 Bus 40",
            "MV3.101 Bus 119",
            "MV3.101 Bus 120",
            "MV3.101 Bus 121",
            "MV3.101 Bus 122",
            "MV3.101 Bus 123",
            "MV3.101 Bus 124",
            "MV3.101 Bus 125",
            "MV3.101 Bus 126",
            "MV3.101 Bus 127",
            "MV3.101 Bus 128",
            "MV3.101 Bus 129",
            "MV3.101 Bus 130",
            "MV3.101 Bus 131",
            "MV3.101 Bus 132",
            "MV3.101 Bus 133",
            "MV3.101 Bus 134",
            "MV3.101 Bus 135",
            "MV3.101 Bus 136",
            "MV3.101 Bus 137",
            "MV3.101 Bus 138",
            "MV3.101 Bus 139",
            "MV3.101 Bus 140",
            "MV3.101 Bus 141",
            "MV3.101 Bus 142",
            "MV3.101 Bus 143",
            "MV3.101 Bus 18_1",
            "MV3.101 Bus 143_1",
            "MV3.101 Bus 135_1",
            "MV3.101 Bus 40_1"
        ],
        "Basestation_19": [
            "MV3.101 Bus 52",
            "MV3.101 Bus 53",
            "MV3.101 Bus 54",
            "MV3.101 Bus 55",
            "MV3.101 Bus 60",
            "MV3.101 Bus 61",
            "MV3.101 Bus 62",
            "MV3.101 Bus 63",
            "MV3.101 Bus 64",
            "MV3.101 Bus 65",
            "MV3.101 Bus 66",
            "MV3.101 Bus 67",
            "MV3.101 Bus 68",
            "MV3.101 Bus 69",
            "MV3.101 Bus 70",
            "MV3.101 Bus 74",
            "MV3.101 Bus 75",
            "MV3.101 Bus 76",
            "MV3.101 Bus 94",
            "MV3.101 Bus 95",
            "MV3.101 Bus 96",
            "MV3.101 Bus 97",
            "MV3.101 Bus 98",
            "MV3.101 Bus 99",
            "MV3.101 Bus 100",
            "MV3.101 Bus 101",
            "MV3.101 Bus 102",
            "MV3.101 Bus 103",
            "MV3.101 Bus 104",
            "MV3.101 Bus 104_1",
            "MV3.101 Bus 68_1",
            "MV3.101 Bus 75_1"
        ],
        "Basestation_20": [
            "MV3.101 Bus 19",
            "MV3.101 Bus 20",
            "MV3.101 Bus 21",
            "MV3.101 Bus 80",
            "MV3.101 Bus 81",
            "MV3.101 Bus 82",
            "MV3.101 Bus 83",
            "MV3.101 Bus 84",
            "MV3.101 Bus 85",
            "MV3.101 Bus 86",
            "MV3.101 Bus 87",
            "MV3.101 Bus 88",
            "MV3.101 Bus 89",
            "MV3.101 Bus 90",
            "MV3.101 Bus 91",
            "MV3.101 Bus 92",
            "MV3.101 Bus 93",
            "MV3.101 Bus 106",
            "MV3.101 Bus 107",
            "MV3.101 Bus 108",
            "MV3.101 Bus 109",
            "MV3.101 Bus 110",
            "MV3.101 Bus 111",
            "MV3.101 Bus 112",
            "MV3.101 Bus 113",
            "MV3.101 Bus 114",
            "MV3.101 Bus 115",
            "MV3.101 Bus 116",
            "MV3.101 Bus 117",
            "MV3.101 Bus 118",
            "MV3.101 Bus 118_1",
            "MV3.101 Bus 114_1",
            "MV3.101 Bus 110_1"
        ],
        "Basestation_21": [
            "HV1 Bus 25",
            "MV3.101 node1",
            "MV3.101 BS busbar1A",
            "MV3.101 Bus 11",
            "MV3.101 Bus 12",
            "MV3.101 Bus 13",
            "MV3.101 Bus 14",
            "MV3.101 Bus 15",
            "MV3.101 Bus 16",
            "MV3.101 Bus 17",
            "MV3.101 Bus 18",
            "MV3.101 Bus 19",
            "MV3.101 Bus 20",
            "MV3.101 Bus 21",
            "MV3.101 Bus 22",
            "MV3.101 Bus 23",
            "MV3.101 Bus 24",
            "MV3.101 Bus 25",
            "MV3.101 Bus 26",
            "MV3.101 Bus 27",
            "MV3.101 Bus 28",
            "MV3.101 Bus 29",
            "MV3.101 Bus 30",
            "MV3.101 Bus 31",
            "MV3.101 Bus 32",
            "MV3.101 Bus 33",
            "MV3.101 Bus 34",
            "MV3.101 Bus 35",
            "MV3.101 Bus 36",
            "MV3.101 Bus 37",
            "MV3.101 Bus 38",
            "MV3.101 Bus 39",
            "MV3.101 Bus 40",
            "MV3.101 Bus 41",
            "MV3.101 Bus 42",
            "MV3.101 Bus 43",
            "MV3.101 Bus 44",
            "MV3.101 Bus 51",
            "MV3.101 Bus 52",
            "MV3.101 Bus 53",
            "MV3.101 Bus 59",
            "MV3.101 Bus 60",
            "MV3.101 Bus 77",
            "MV3.101 Bus 78",
            "MV3.101 Bus 79",
            "MV3.101 Bus 80",
            "MV3.101 Bus 81",
            "MV3.101 Bus 82",
            "MV3.101 Bus 94",
            "MV3.101 Bus 95",
            "MV3.101 Bus 105",
            "MV3.101 Bus 106",
            "MV3.101 Bus 107",
            "MV3.101 Bus 108",
            "MV3.101 Bus 114",
            "MV3.101 Bus 115",
            "MV3.101 Bus 119",
            "MV3.101 Bus 120",
            "MV3.101 Bus 121",
            "MV3.101 Bus 122",
            "MV3.101 Bus 123",
            "MV3.101 Bus 124",
            "MV3.101 Bus 125",
            "MV3.101 Bus 126",
            "MV3.101 Bus 127",
            "MV3.101 Bus 128",
            "MV3.101 Bus 129",
            "MV3.101 Bus 130",
            "MV3.101 Bus 131",
            "MV3.101 Bus 132",
            "MV3.101 Bus 133",
            "MV3.101 Bus 134",
            "MV3.101 Bus 135",
            "MV3.101 Bus 136",
            "MV3.101 Bus 137",
            "MV3.101 Bus 138",
            "MV3.101 Bus 139",
            "MV3.101 Bus 140",
            "MV3.101 Bus 141",
            "MV3.101 Bus 142",
            "MV3.101 Bus 143",
            "MV3.101 Bus 18_1",
            "MV3.101 Bus 143_1",
            "MV3.101 Bus 135_1",
            "MV3.101 Bus 114_1",
            "MV3.101 Bus 40_1"
        ]
    },
    "Basestation_Basestation": {
        "link_0": [
            "Basestation_0",
            "Basestation_1"
        ],
        "link_1": [
            "Basestation_0",
            "Basestation_2"
        ],
        "link_2": [
            "Basestation_0",
            "Basestation_6"
        ],
        "link_3": [
            "Basestation_0",
            "Basestation_8"
        ],
        "link_4": [
            "Basestation_0",
            "Basestation_9"
        ],
        "link_5": [
            "Basestation_0",
            "Basestation_13"
        ],
        "link_6": [
            "Basestation_0",
            "Basestation_16"
        ],
        "link_7": [
            "Basestation_0",
            "Basestation_17"
        ],
        "link_8": [
            "Basestation_0",
            "Basestation_21"
        ],
        "link_9": [
            "Basestation_1",
            "Basestation_3"
        ],
        "link_10": [
            "Basestation_1",
            "Basestation_4"
        ],
        "link_11": [
            "Basestation_1",
            "Basestation_7"
        ],
        "link_12": [
            "Basestation_1",
            "Basestation_8"
        ],
        "link_13": [
            "Basestation_1",
            "Basestation_9"
        ],
        "link_14": [
            "Basestation_1",
            "Basestation_11"
        ],
        "link_15": [
            "Basestation_1",
            "Basestation_16"
        ],
        "link_16": [
            "Basestation_1",
            "Basestation_17"
        ],
        "link_17": [
            "Basestation_1",
            "Basestation_21"
        ],
        "link_18": [
            "Basestation_2",
            "Basestation_5"
        ],
        "link_19": [
            "Basestation_2",
            "Basestation_11"
        ],
        "link_20": [
            "Basestation_2",
            "Basestation_14"
        ],
        "link_21": [
            "Basestation_2",
            "Basestation_16"
        ],
        "link_22": [
            "Basestation_2",
            "Basestation_19"
        ],
        "link_23": [
            "Basestation_3",
            "Basestation_6"
        ],
        "link_24": [
            "Basestation_3",
            "Basestation_7"
        ],
        "link_25": [
            "Basestation_3",
            "Basestation_8"
        ],
        "link_26": [
            "Basestation_3",
            "Basestation_17"
        ],
        "link_27": [
            "Basestation_3",
            "Basestation_18"
        ],
        "link_28": [
            "Basestation_3",
            "Basestation_21"
        ],
        "link_29": [
            "Basestation_4",
            "Basestation_7"
        ],
        "link_30": [
            "Basestation_4",
            "Basestation_9"
        ],
        "link_31": [
            "Basestation_4",
            "Basestation_11"
        ],
        "link_32": [
            "Basestation_4",
            "Basestation_16"
        ],
        "link_33": [
            "Basestation_4",
            "Basestation_19"
        ],
        "link_34": [
            "Basestation_5",
            "Basestation_11"
        ],
        "link_35": [
            "Basestation_5",
            "Basestation_14"
        ],
        "link_36": [
            "Basestation_5",
            "Basestation_19"
        ],
        "link_37": [
            "Basestation_6",
            "Basestation_8"
        ],
        "link_38": [
            "Basestation_6",
            "Basestation_12"
        ],
        "link_39": [
            "Basestation_6",
            "Basestation_13"
        ],
        "link_40": [
            "Basestation_6",
            "Basestation_16"
        ],
        "link_41": [
            "Basestation_6",
            "Basestation_17"
        ],
        "link_42": [
            "Basestation_6",
            "Basestation_21"
        ],
        "link_43": [
            "Basestation_7",
            "Basestation_8"
        ],
        "link_44": [
            "Basestation_7",
            "Basestation_9"
        ],
        "link_45": [
            "Basestation_7",
            "Basestation_11"
        ],
        "link_46": [
            "Basestation_7",
            "Basestation_15"
        ],
        "link_47": [
            "Basestation_7",
            "Basestation_16"
        ],
        "link_48": [
            "Basestation_7",
            "Basestation_17"
        ],
        "link_49": [
            "Basestation_7",
            "Basestation_19"
        ],
        "link_50": [
            "Basestation_7",
            "Basestation_20"
        ],
        "link_51": [
            "Basestation_7",
            "Basestation_21"
        ],
        "link_52": [
            "Basestation_8",
            "Basestation_9"
        ],
        "link_53": [
            "Basestation_8",
            "Basestation_12"
        ],
        "link_54": [
            "Basestation_8",
            "Basestation_13"
        ],
        "link_55": [
            "Basestation_8",
            "Basestation_16"
        ],
        "link_56": [
            "Basestation_8",
            "Basestation_17"
        ],
        "link_57": [
            "Basestation_8",
            "Basestation_18"
        ],
        "link_58": [
            "Basestation_8",
            "Basestation_21"
        ],
        "link_59": [
            "Basestation_9",
            "Basestation_11"
        ],
        "link_60": [
            "Basestation_9",
            "Basestation_16"
        ],
        "link_61": [
            "Basestation_9",
            "Basestation_17"
        ],
        "link_62": [
            "Basestation_9",
            "Basestation_19"
        ],
        "link_63": [
            "Basestation_9",
            "Basestation_21"
        ],
        "link_64": [
            "Basestation_10",
            "Basestation_15"
        ],
        "link_65": [
            "Basestation_10",
            "Basestation_20"
        ],
        "link_66": [
            "Basestation_11",
            "Basestation_14"
        ],
        "link_67": [
            "Basestation_11",
            "Basestation_16"
        ],
        "link_68": [
            "Basestation_11",
            "Basestation_19"
        ],
        "link_69": [
            "Basestation_12",
            "Basestation_13"
        ],
        "link_70": [
            "Basestation_12",
            "Basestation_18"
        ],
        "link_71": [
            "Basestation_12",
            "Basestation_21"
        ],
        "link_72": [
            "Basestation_13",
            "Basestation_17"
        ],
        "link_73": [
            "Basestation_13",
            "Basestation_18"
        ],
        "link_74": [
            "Basestation_13",
            "Basestation_21"
        ],
        "link_75": [
            "Basestation_15",
            "Basestation_20"
        ],
        "link_76": [
            "Basestation_16",
            "Basestation_17"
        ],
        "link_77": [
            "Basestation_16",
            "Basestation_19"
        ],
        "link_78": [
            "Basestation_16",
            "Basestation_21"
        ],
        "link_79": [
            "Basestation_17",
            "Basestation_18"
        ],
        "link_80": [
            "Basestation_17",
            "Basestation_21"
        ],
        "link_81": [
            "Basestation_18",
            "Basestation_21"
        ]
    },
    "Basestation_Bus": {
        "Basestation_0": "44",
        "Basestation_1": "79",
        "Basestation_2": "69",
        "Basestation_3": "16",
        "Basestation_4": "98",
        "Basestation_5": "74",
        "Basestation_6": "29",
        "Basestation_7": "83",
        "Basestation_8": "119",
        "Basestation_9": "96",
        "Basestation_10": "93",
        "Basestation_11": "64",
        "Basestation_12": "35",
        "Basestation_13": "139",
        "Basestation_14": "72",
        "Basestation_15": "111",
        "Basestation_16": "61",
        "Basestation_17": "40",
        "Basestation_18": "122",
        "Basestation_19": "64",
        "Basestation_20": "86",
        "Basestation_21": "119"
    }
}