{
    "ied_substation": {
        "MV3.101 Bus 11": [
            "IED_Load_11",
            "IED_SGen_11",
            "IED_Switch_11"
        ],
        "MV3.101 Bus 12": [
            "IED_Load_12",
            "IED_SGen_12",
            "IED_Switch_12"
        ],
        "MV3.101 Bus 13": [
            "IED_Load_13",
            "IED_SGen_13",
            "IED_Switch_13"
        ],
        "MV3.101 Bus 14": [
            "IED_Load_14",
            "IED_SGen_14",
            "IED_Switch_14"
        ],
        "MV3.101 Bus 15": [
            "IED_Load_15",
            "IED_SGen_15",
            "IED_Switch_15"
        ],
        "MV3.101 Bus 16": [
            "IED_Load_16",
            "IED_SGen_16",
            "IED_Switch_16"
        ],
        "MV3.101 Bus 17": [
            "IED_Load_17",
            "IED_SGen_17",
            "IED_Switch_17"
        ],
        "MV3.101 Bus 18": [
            "IED_Load_18",
            "IED_SGen_18",
            "IED_Switch_18"
        ],
        "MV3.101 Bus 19": [
            "IED_Load_19",
            "IED_SGen_19",
            "IED_Switch_19"
        ],
        "MV3.101 Bus 20": [
            "IED_Load_20",
            "IED_SGen_20",
            "IED_Switch_20"
        ],
        "MV3.101 Bus 21": [
            "IED_Load_21",
            "IED_SGen_21",
            "IED_Switch_21",
            "IED_ICT_21"
        ],
        "MV3.101 Bus 22": [
            "IED_Load_22",
            "IED_SGen_22",
            "IED_Switch_22"
        ],
        "MV3.101 Bus 23": [
            "IED_Load_23",
            "IED_SGen_23",
            "IED_Switch_23"
        ],
        "MV3.101 Bus 24": [
            "IED_Load_24",
            "IED_SGen_24",
            "IED_Switch_24"
        ],
        "MV3.101 Bus 25": [
            "IED_Load_25",
            "IED_SGen_25",
            "IED_Switch_25"
        ],
        "MV3.101 Bus 26": [
            "IED_Load_26",
            "IED_SGen_26",
            "IED_Switch_26",
            "IED_ICT_26"
        ],
        "MV3.101 Bus 27": [
            "IED_Load_27",
            "IED_SGen_27",
            "IED_Switch_27"
        ],
        "MV3.101 Bus 28": [
            "IED_Load_28",
            "IED_SGen_28",
            "IED_Switch_28",
            "IED_ICT_28"
        ],
        "MV3.101 Bus 29": [
            "IED_Load_29",
            "IED_SGen_29",
            "IED_Switch_29"
        ],
        "MV3.101 Bus 30": [
            "IED_Load_30",
            "IED_SGen_30",
            "IED_Switch_30"
        ],
        "MV3.101 Bus 31": [
            "IED_Load_31",
            "IED_SGen_31",
            "IED_Switch_31"
        ],
        "MV3.101 Bus 32": [
            "IED_Load_32",
            "IED_SGen_32",
            "IED_Switch_32",
            "IED_ICT_32"
        ],
        "MV3.101 Bus 33": [
            "IED_Load_33",
            "IED_SGen_33",
            "IED_Switch_33"
        ],
        "MV3.101 Bus 34": [
            "IED_Load_34",
            "IED_SGen_34",
            "IED_Switch_34"
        ],
        "MV3.101 Bus 35": [
            "IED_Load_35",
            "IED_SGen_35",
            "IED_Switch_35"
        ],
        "MV3.101 Bus 36": [
            "IED_Load_36",
            "IED_SGen_36",
            "IED_Switch_36"
        ],
        "MV3.101 Bus 37": [
            "IED_Load_37",
            "IED_SGen_37",
            "IED_Switch_37"
        ],
        "MV3.101 Bus 38": [
            "IED_Load_38",
            "IED_SGen_38",
            "IED_Switch_38"
        ],
        "MV3.101 Bus 39": [
            "IED_Load_39",
            "IED_SGen_39",
            "IED_Switch_39"
        ],
        "MV3.101 Bus 40": [
            "IED_Load_40",
            "IED_SGen_40",
            "IED_Switch_40"
        ],
        "MV3.101 Bus 41": [
            "IED_Load_41",
            "IED_SGen_41",
            "IED_Switch_41"
        ],
        "MV3.101 Bus 42": [
            "IED_Load_42",
            "IED_SGen_42",
            "IED_Switch_42"
        ],
        "MV3.101 Bus 43": [
            "IED_Load_43",
            "IED_SGen_43",
            "IED_Switch_43"
        ],
        "MV3.101 Bus 44": [
            "IED_Load_44",
            "IED_SGen_44",
            "IED_Switch_44",
            "IED_ICT_44"
        ],
        "MV3.101 Bus 45": [
            "IED_Load_45",
            "IED_SGen_45",
            "IED_Switch_45"
        ],
        "MV3.101 Bus 46": [
            "IED_Load_46",
            "IED_SGen_46",
            "IED_Switch_46"
        ],
        "MV3.101 Bus 47": [
            "IED_Load_47",
            "IED_SGen_47",
            "IED_Switch_47"
        ],
        "MV3.101 Bus 48": [
            "IED_Load_48",
            "IED_SGen_48",
            "IED_Switch_48"
        ],
        "MV3.101 Bus 49": [
            "IED_Load_49",
            "IED_SGen_49",
            "IED_Switch_49"
        ],
        "MV3.101 Bus 50": [
            "IED_Load_50",
            "IED_SGen_50",
            "IED_Switch_50"
        ],
        "MV3.101 Bus 51": [
            "IED_Load_51",
            "IED_SGen_51",
            "IED_Switch_51"
        ],
        "MV3.101 Bus 52": [
            "IED_Load_52",
            "IED_SGen_52",
            "IED_Switch_52",
            "IED_ICT_52"
        ],
        "MV3.101 Bus 53": [
            "IED_Load_53",
            "IED_SGen_53",
            "IED_Switch_53"
        ],
        "MV3.101 Bus 54": [
            "IED_Load_54",
            "IED_SGen_54",
            "IED_Switch_54"
        ],
        "MV3.101 Bus 55": [
            "IED_Load_55",
            "IED_SGen_55",
            "IED_Switch_55"
        ],
        "MV3.101 Bus 56": [
            "IED_Load_56",
            "IED_SGen_56",
            "IED_Switch_56"
        ],
        "MV3.101 Bus 57": [
            "IED_Load_57",
            "IED_SGen_57",
            "IED_Switch_57"
        ],
        "MV3.101 Bus 58": [
            "IED_Load_58",
            "IED_SGen_58",
            "IED_Switch_58"
        ],
        "MV3.101 Bus 59": [
            "IED_Load_59",
            "IED_SGen_59",
            "IED_Switch_59"
        ],
        "MV3.101 Bus 60": [
            "IED_Load_60",
            "IED_SGen_60",
            "IED_Switch_60"
        ],
        "MV3.101 Bus 61": [
            "IED_Load_61",
            "IED_SGen_61",
            "IED_Switch_61"
        ],
        "MV3.101 Bus 62": [
            "IED_Load_62",
            "IED_SGen_62",
            "IED_Switch_62"
        ],
        "MV3.101 Bus 63": [
            "IED_Load_63",
            "IED_SGen_63",
            "IED_Switch_63",
            "IED_ICT_63"
        ],
        "MV3.101 Bus 64": [
            "IED_Load_64",
            "IED_SGen_64",
            "IED_Switch_64"
        ],
        "MV3.101 Bus 65": [
            "IED_Load_65",
            "IED_SGen_65",
            "IED_Switch_65"
        ],
        "MV3.101 Bus 66": [
            "IED_Load_66",
            "IED_SGen_66",
            "IED_Switch_66"
        ],
        "MV3.101 Bus 67": [
            "IED_Load_67",
            "IED_SGen_67",
            "IED_Switch_67"
        ],
        "MV3.101 Bus 68": [
            "IED_Load_68",
            "IED_SGen_68",
            "IED_Switch_68"
        ],
        "MV3.101 Bus 69": [
            "IED_Load_69",
            "IED_SGen_69",
            "IED_Switch_69"
        ],
        "MV3.101 Bus 70": [
            "IED_Load_70",
            "IED_SGen_70",
            "IED_Switch_70"
        ],
        "MV3.101 Bus 71": [
            "IED_Load_71",
            "IED_SGen_71",
            "IED_Switch_71"
        ],
        "MV3.101 Bus 72": [
            "IED_Load_72",
            "IED_SGen_72",
            "IED_Switch_72"
        ],
        "MV3.101 Bus 73": [
            "IED_Load_73",
            "IED_SGen_73",
            "IED_Switch_73"
        ],
        "MV3.101 Bus 74": [
            "IED_Load_74",
            "IED_SGen_74",
            "IED_Switch_74",
            "IED_ICT_74"
        ],
        "MV3.101 Bus 75": [
            "IED_Load_75",
            "IED_SGen_75",
            "IED_Switch_75"
        ],
        "MV3.101 Bus 76": [
            "IED_Load_76",
            "IED_SGen_76",
            "IED_Switch_76"
        ],
        "MV3.101 Bus 77": [
            "IED_Load_77",
            "IED_SGen_77",
            "IED_Switch_77"
        ],
        "MV3.101 Bus 78": [
            "IED_Load_78",
            "IED_SGen_78",
            "IED_Switch_78"
        ],
        "MV3.101 Bus 79": [
            "IED_Load_79",
            "IED_SGen_79",
            "IED_Switch_79"
        ],
        "MV3.101 Bus 80": [
            "IED_Load_80",
            "IED_SGen_80",
            "IED_Switch_80"
        ],
        "MV3.101 Bus 81": [
            "IED_Load_81",
            "IED_SGen_81",
            "IED_Switch_81"
        ],
        "MV3.101 Bus 82": [
            "IED_Load_82",
            "IED_SGen_82",
            "IED_Switch_82"
        ],
        "MV3.101 Bus 83": [
            "IED_Load_83",
            "IED_SGen_83",
            "IED_Switch_83"
        ],
        "MV3.101 Bus 84": [
            "IED_Load_84",
            "IED_SGen_84",
            "IED_Switch_84"
        ],
        "MV3.101 Bus 85": [
            "IED_Load_85",
            "IED_SGen_85",
            "IED_Switch_85"
        ],
        "MV3.101 Bus 86": [
            "IED_Load_86",
            "IED_SGen_86.1",
            "IED_SGen_86.2",
            "IED_Switch_86",
            "IED_ICT_86"
        ],
        "MV3.101 Bus 87": [
            "IED_Load_87",
            "IED_SGen_87",
            "IED_Switch_87"
        ],
        "MV3.101 Bus 88": [
            "IED_Load_88",
            "IED_SGen_88",
            "IED_Switch_88"
        ],
        "MV3.101 Bus 89": [
            "IED_Load_89",
            "IED_SGen_89",
            "IED_Switch_89"
        ],
        "MV3.101 Bus 90": [
            "IED_Load_90",
            "IED_SGen_90",
            "IED_Switch_90",
            "IED_ICT_90"
        ],
        "MV3.101 Bus 91": [
            "IED_Load_91",
            "IED_SGen_91",
            "IED_Switch_91"
        ],
        "MV3.101 Bus 92": [
            "IED_Load_92",
            "IED_SGen_92",
            "IED_Switch_92"
        ],
        "MV3.101 Bus 93": [
            "IED_Load_93",
            "IED_SGen_93",
            "IED_Switch_93",
            "IED_ICT_93"
        ],
        "MV3.101 Bus 94": [
            "IED_Load_94",
            "IED_SGen_94",
            "IED_Switch_94"
        ],
        "MV3.101 Bus 95": [
            "IED_Load_95",
            "IED_SGen_95",
            "IED_Switch_95"
        ],
        "MV3.101 Bus 96": [
            "IED_Load_96",
            "IED_SGen_96",
            "IED_Switch_96"
        ],
        "MV3.101 Bus 97": [
            "IED_Load_97",
            "IED_SGen_97",
            "IED_Switch_97"
        ],
        "MV3.101 Bus 98": [
            "IED_Load_98",
            "IED_SGen_98",
            "IED_Switch_98"
        ],
        "MV3.101 Bus 99": [
            "IED_Load_99",
            "IED_SGen_99",
            "IED_Switch_99"
        ],
        "MV3.101 Bus 100": [
            "IED_Load_100",
            "IED_SGen_100",
            "IED_Switch_100"
        ],
        "MV3.101 Bus 101": [
            "IED_Load_101",
            "IED_SGen_101",
            "IED_Switch_101"
        ],
        "MV3.101 Bus 102": [
            "IED_Load_102",
            "IED_SGen_102",
            "IED_Switch_102",
            "IED_ICT_102"
        ],
        "MV3.101 Bus 103": [
            "IED_Load_103",
            "IED_SGen_103",
            "IED_Switch_103"
        ],
        "MV3.101 Bus 104": [
            "IED_Load_104",
            "IED_SGen_104",
            "IED_Switch_104"
        ],
        "MV3.101 Bus 105": [
            "IED_Load_105",
            "IED_SGen_105",
            "IED_Switch_105"
        ],
        "MV3.101 Bus 106": [
            "IED_Load_106",
            "IED_SGen_106",
            "IED_Switch_106"
        ],
        "MV3.101 Bus 107": [
            "IED_Load_107",
            "IED_SGen_107",
            "IED_Switch_107"
        ],
        "MV3.101 Bus 108": [
            "IED_Load_108",
            "IED_SGen_108",
            "IED_Switch_108"
        ],
        "MV3.101 Bus 109": [
            "IED_Load_109",
            "IED_SGen_109",
            "IED_Switch_109"
        ],
        "MV3.101 Bus 110": [
            "IED_Load_110",
            "IED_SGen_110",
            "IED_Switch_110"
        ],
        "MV3.101 Bus 111": [
            "IED_Load_111",
            "IED_SGen_111",
            "IED_Switch_111",
            "IED_ICT_111"
        ],
        "MV3.101 Bus 112": [
            "IED_Load_112",
            "IED_SGen_112",
            "IED_Switch_112",
            "IED_ICT_112"
        ],
        "MV3.101 Bus 113": [
            "IED_Load_113",
            "IED_SGen_113",
            "IED_Switch_113"
        ],
        "MV3.101 Bus 114": [
            "IED_Load_114",
            "IED_SGen_114",
            "IED_Switch_114"
        ],
        "MV3.101 Bus 115": [
            "IED_Load_115",
            "IED_SGen_115",
            "IED_Switch_115"
        ],
        "MV3.101 Bus 116": [
            "IED_Load_116",
            "IED_SGen_116",
            "IED_Switch_116"
        ],
        "MV3.101 Bus 117": [
            "IED_Load_117",
            "IED_SGen_117",
            "IED_Switch_117"
        ],
        "MV3.101 Bus 118": [
            "IED_Load_118",
            "IED_SGen_118",
            "IED_Switch_118"
        ],
        "MV3.101 Bus 119": [
            "IED_Load_119",
            "IED_SGen_119",
            "IED_Switch_119"
        ],
        "MV3.101 Bus 120": [
            "IED_Load_120",
            "IED_SGen_120",
            "IED_Switch_120"
        ],
        "MV3.101 Bus 121": [
            "IED_Load_121",
            "IED_SGen_121",
            "IED_Switch_121",
            "IED_ICT_121"
        ],
        "MV3.101 Bus 122": [
            "IED_Load_122",
            "IED_SGen_122",
            "IED_Switch_122"
        ],
        "MV3.101 Bus 123": [
            "IED_Load_123",
            "IED_SGen_123",
            "IED_Switch_123"
        ],
        "MV3.101 Bus 124": [
            "IED_Load_124",
            "IED_SGen_124",
            "IED_Switch_124"
        ],
        "MV3.101 Bus 125": [
            "IED_Load_125",
            "IED_SGen_125",
            "IED_Switch_125"
        ],
        "MV3.101 Bus 126": [
            "IED_Load_126",
            "IED_SGen_126",
            "IED_Switch_126"
        ],
        "MV3.101 Bus 127": [
            "IED_Load_127",
            "IED_SGen_127",
            "IED_Switch_127"
        ],
        "MV3.101 Bus 128": [
            "IED_Load_128",
            "IED_SGen_128",
            "IED_Switch_128",
            "IED_ICT_128"
        ],
        "MV3.101 Bus 129": [
            "IED_Load_129",
            "IED_SGen_129",
            "IED_Switch_129",
            "IED_ICT_129"
        ],
        "MV3.101 Bus 130": [
            "IED_Load_130",
            "IED_SGen_130",
            "IED_Switch_130",
            "IED_ICT_130"
        ],
        "MV3.101 Bus 131": [
            "IED_Load_131",
            "IED_SGen_131",
            "IED_Switch_131"
        ],
        "MV3.101 Bus 132": [
            "IED_Load_132",
            "IED_SGen_132",
            "IED_Switch_132"
        ],
        "MV3.101 Bus 133": [
            "IED_Load_133",
            "IED_SGen_133",
            "IED_Switch_133",
            "IED_ICT_133"
        ],
        "MV3.101 Bus 134": [
            "IED_Load_134",
            "IED_SGen_134",
            "IED_Switch_134"
        ],
        "MV3.101 Bus 135": [
            "IED_Load_135",
            "IED_SGen_135",
            "IED_Switch_135"
        ],
        "MV3.101 Bus 136": [
            "IED_Load_136",
            "IED_SGen_136",
            "IED_Switch_136"
        ],
        "MV3.101 Bus 137": [
            "IED_Load_137",
            "IED_SGen_137",
            "IED_Switch_137"
        ],
        "MV3.101 Bus 138": [
            "IED_Load_138",
            "IED_SGen_138",
            "IED_Switch_138"
        ],
        "MV3.101 Bus 139": [
            "IED_Load_139",
            "IED_SGen_139",
            "IED_Switch_139"
        ],
        "MV3.101 Bus 140": [
            "IED_Load_140",
            "IED_SGen_140",
            "IED_Switch_140"
        ],
        "MV3.101 Bus 141": [
            "IED_Load_141",
            "IED_SGen_141",
            "IED_Switch_141",
            "IED_ICT_141"
        ],
        "MV3.101 Bus 142": [
            "IED_Load_142",
            "IED_SGen_142",
            "IED_Switch_142"
        ],
        "MV3.101 Bus 143": [
            "IED_Load_143",
            "IED_SGen_143",
            "IED_Switch_143"
        ]
    }
}