{
  "agent_ied": {
      "agent1": "IED_Load_4",
      "agent2": "IED_Load_5",
      "agent3": "IED_Load_6",
      "agent4": "IED_Load_7",
      "agent5": "IED_Load_8",
      "agent6": "IED_Load_9",
      "agent7": "IED_Load_10",
      "agent8": "IED_Load_11",
      "agent9": "IED_Load_12",
      "agent10": "IED_Load_13",
      "agent11": "IED_Load_16",
      "agent12": "IED_Load_17",
      "agent13": "IED_Load_18",
      "agent14": "IED_Load_19",
      "agent15": "IED_Load_20",
      "agent16": "IED_Load_21",
      "agent17": "IED_Load_22",
      "agent18": "IED_Load_23",
      "agent19": "IED_Load_24",
      "agent20": "IED_Load_25",
      "agent21": "IED_Load_26",
      "agent22": "IED_Load_27",
      "agent23": "IED_Load_28",
      "agent24": "IED_Load_29",
      "agent25": "IED_Load_30",
      "agent26": "IED_Load_31",
      "agent27": "IED_Load_32",
      "agent28": "IED_Load_33",
      "agent29": "IED_Load_34",
      "agent30": "IED_Load_35",
      "agent31": "IED_Load_36",
      "agent32": "IED_Load_37",
      "agent33": "IED_Load_38",
      "agent34": "IED_Load_39",
      "agent35": "IED_Load_40",
      "agent36": "IED_Load_41",
      "agent37": "IED_Load_42",
      "agent38": "IED_Load_43",
      "agent39": "IED_Load_44",
      "agent40": "IED_Load_45",
      "agent41": "IED_Load_46",
      "agent42": "IED_Load_47",
      "agent43": "IED_Load_48",
      "agent44": "IED_Load_49",
      "agent45": "IED_Load_50",
      "agent46": "IED_Load_51",
      "agent47": "IED_Load_52",
      "agent48": "IED_Load_53",
      "agent49": "IED_Load_54",
      "agent50": "IED_Load_55",
      "agent51": "IED_Load_56",
      "agent52": "IED_Load_57",
      "agent53": "IED_Load_58",
      "agent54": "IED_Load_59",
      "agent55": "IED_Load_60",
      "agent56": "IED_Load_61",
      "agent57": "IED_Load_62",
      "agent58": "IED_Load_63",
      "agent59": "IED_Load_64",
      "agent60": "IED_Load_65",
      "agent61": "IED_Load_66",
      "agent62": "IED_Load_67",
      "agent63": "IED_Load_68",
      "agent64": "IED_Load_70",
      "agent65": "IED_Load_71",
      "agent66": "IED_Load_72",
      "agent67": "IED_Load_73",
      "agent68": "IED_Load_74",
      "agent69": "IED_Load_75",
      "agent70": "IED_Load_76",
      "agent71": "IED_Load_77",
      "agent72": "IED_Load_78",
      "agent73": "IED_Load_79",
      "agent74": "IED_Load_80",
      "agent75": "IED_Load_81",
      "agent76": "IED_Load_82",
      "agent77": "IED_Load_83",
      "agent78": "IED_Load_84",
      "agent79": "IED_Load_85",
      "agent80": "IED_Load_86",
      "agent81": "IED_Load_87",
      "agent82": "IED_Load_88",
      "agent83": "IED_Load_89",
      "agent84": "IED_Load_90",
      "agent85": "IED_Load_91",
      "agent86": "IED_Load_92",
      "agent87": "IED_Load_93",
      "agent88": "IED_Load_94",
      "agent89": "IED_Load_95",
      "agent90": "IED_Load_96",
      "agent91": "IED_Load_15",
      "agent92": "IED_SGen_4",
      "agent93": "IED_SGen_5",
      "agent94": "IED_SGen_6",
      "agent95": "IED_SGen_7",
      "agent96": "IED_SGen_8",
      "agent97": "IED_SGen_9",
      "agent98": "IED_SGen_10",
      "agent99": "IED_SGen_11",
      "agent100": "IED_SGen_12",
      "agent101": "IED_SGen_13",
      "agent102": "IED_SGen_16",
      "agent103": "IED_SGen_17",
      "agent104": "IED_SGen_18",
      "agent105": "IED_SGen_19",
      "agent106": "IED_SGen_20",
      "agent107": "IED_SGen_21",
      "agent108": "IED_SGen_22",
      "agent109": "IED_SGen_23",
      "agent110": "IED_SGen_24",
      "agent111": "IED_SGen_25",
      "agent112": "IED_SGen_26.1",
      "agent113": "IED_SGen_27",
      "agent114": "IED_SGen_28.1",
      "agent115": "IED_SGen_29",
      "agent116": "IED_SGen_30",
      "agent117": "IED_SGen_31",
      "agent118": "IED_SGen_32",
      "agent119": "IED_SGen_33",
      "agent120": "IED_SGen_34",
      "agent121": "IED_SGen_35",
      "agent122": "IED_SGen_36",
      "agent123": "IED_SGen_37",
      "agent124": "IED_SGen_38",
      "agent125": "IED_SGen_39",
      "agent126": "IED_SGen_40",
      "agent127": "IED_SGen_41.1",
      "agent128": "IED_SGen_42",
      "agent129": "IED_SGen_43",
      "agent130": "IED_SGen_44.1",
      "agent131": "IED_SGen_45",
      "agent132": "IED_SGen_46.1",
      "agent133": "IED_SGen_47",
      "agent134": "IED_SGen_48",
      "agent135": "IED_SGen_49.1",
      "agent136": "IED_SGen_50",
      "agent137": "IED_SGen_51",
      "agent138": "IED_SGen_52",
      "agent139": "IED_SGen_53",
      "agent140": "IED_SGen_54",
      "agent141": "IED_SGen_55",
      "agent142": "IED_SGen_56",
      "agent143": "IED_SGen_57",
      "agent144": "IED_SGen_58",
      "agent145": "IED_SGen_59.1",
      "agent146": "IED_SGen_60",
      "agent147": "IED_SGen_61.1",
      "agent148": "IED_SGen_62",
      "agent149": "IED_SGen_63",
      "agent150": "IED_SGen_64",
      "agent151": "IED_SGen_65",
      "agent152": "IED_SGen_66",
      "agent153": "IED_SGen_67",
      "agent154": "IED_SGen_68",
      "agent155": "IED_SGen_70",
      "agent156": "IED_SGen_71",
      "agent157": "IED_SGen_72",
      "agent158": "IED_SGen_73",
      "agent159": "IED_SGen_74",
      "agent160": "IED_SGen_75",
      "agent161": "IED_SGen_76",
      "agent162": "IED_SGen_77",
      "agent163": "IED_SGen_78",
      "agent164": "IED_SGen_79",
      "agent165": "IED_SGen_80",
      "agent166": "IED_SGen_81",
      "agent167": "IED_SGen_82",
      "agent168": "IED_SGen_83",
      "agent169": "IED_SGen_84",
      "agent170": "IED_SGen_85",
      "agent171": "IED_SGen_86",
      "agent172": "IED_SGen_87",
      "agent173": "IED_SGen_88",
      "agent174": "IED_SGen_89",
      "agent175": "IED_SGen_90",
      "agent176": "IED_SGen_91",
      "agent177": "IED_SGen_92",
      "agent178": "IED_SGen_93",
      "agent179": "IED_SGen_94",
      "agent180": "IED_SGen_95",
      "agent181": "IED_SGen_96",
      "agent182": "IED_SGen_14",
      "agent183": "IED_SGen_15",
      "agent184": "IED_SGen_49.2",
      "agent185": "IED_SGen_59.2",
      "agent186": "IED_SGen_61.2",
      "agent187": "IED_SGen_69",
      "agent188": "IED_SGen_26.2",
      "agent189": "IED_SGen_28.2",
      "agent190": "IED_SGen_41.2",
      "agent191": "IED_SGen_44.2",
      "agent192": "IED_SGen_46.2",
      "agent193": "IED_Switch_4",
      "agent194": "IED_Switch_5",
      "agent195": "IED_Switch_6",
      "agent196": "IED_Switch_7",
      "agent197": "IED_Switch_8",
      "agent198": "IED_Switch_9",
      "agent199": "IED_Switch_10",
      "agent200": "IED_Switch_11",
      "agent201": "IED_Switch_12",
      "agent202": "IED_Switch_13",
      "agent203": "IED_Switch_14",
      "agent204": "IED_Switch_15",
      "agent205": "IED_Switch_16",
      "agent206": "IED_Switch_17",
      "agent207": "IED_Switch_18",
      "agent208": "IED_Switch_19",
      "agent209": "IED_Switch_20",
      "agent210": "IED_Switch_21",
      "agent211": "IED_Switch_22",
      "agent212": "IED_Switch_23",
      "agent213": "IED_Switch_24",
      "agent214": "IED_Switch_25",
      "agent215": "IED_Switch_26",
      "agent216": "IED_Switch_27",
      "agent217": "IED_Switch_28",
      "agent218": "IED_Switch_29",
      "agent219": "IED_Switch_30",
      "agent220": "IED_Switch_31",
      "agent221": "IED_Switch_32",
      "agent222": "IED_Switch_33",
      "agent223": "IED_Switch_34",
      "agent224": "IED_Switch_35",
      "agent225": "IED_Switch_36",
      "agent226": "IED_Switch_37",
      "agent227": "IED_Switch_38",
      "agent228": "IED_Switch_39",
      "agent229": "IED_Switch_40",
      "agent230": "IED_Switch_41",
      "agent231": "IED_Switch_42",
      "agent232": "IED_Switch_43",
      "agent233": "IED_Switch_44",
      "agent234": "IED_Switch_45",
      "agent235": "IED_Switch_46",
      "agent236": "IED_Switch_47",
      "agent237": "IED_Switch_48",
      "agent238": "IED_Switch_49",
      "agent239": "IED_Switch_50",
      "agent240": "IED_Switch_51",
      "agent241": "IED_Switch_52",
      "agent242": "IED_Switch_53",
      "agent243": "IED_Switch_54",
      "agent244": "IED_Switch_55",
      "agent245": "IED_Switch_56",
      "agent246": "IED_Switch_57",
      "agent247": "IED_Switch_58",
      "agent248": "IED_Switch_59",
      "agent249": "IED_Switch_60",
      "agent250": "IED_Switch_61",
      "agent251": "IED_Switch_62",
      "agent252": "IED_Switch_63",
      "agent253": "IED_Switch_64",
      "agent254": "IED_Switch_65",
      "agent255": "IED_Switch_66",
      "agent256": "IED_Switch_67",
      "agent257": "IED_Switch_68",
      "agent258": "IED_Switch_69",
      "agent259": "IED_Switch_70",
      "agent260": "IED_Switch_71",
      "agent261": "IED_Switch_72",
      "agent262": "IED_Switch_73",
      "agent263": "IED_Switch_74",
      "agent264": "IED_Switch_75",
      "agent265": "IED_Switch_76",
      "agent266": "IED_Switch_77",
      "agent267": "IED_Switch_78",
      "agent268": "IED_Switch_79",
      "agent269": "IED_Switch_80",
      "agent270": "IED_Switch_81",
      "agent271": "IED_Switch_82",
      "agent272": "IED_Switch_83",
      "agent273": "IED_Switch_84",
      "agent274": "IED_Switch_85",
      "agent275": "IED_Switch_86",
      "agent276": "IED_Switch_87",
      "agent277": "IED_Switch_88",
      "agent278": "IED_Switch_89",
      "agent279": "IED_Switch_90",
      "agent280": "IED_Switch_91",
      "agent281": "IED_Switch_92",
      "agent282": "IED_Switch_93",
      "agent283": "IED_Switch_94",
      "agent284": "IED_Switch_95",
      "agent285": "IED_Switch_96",
      "agent286": "IED_ICT_60",
      "agent287": "IED_ICT_70",
      "agent288": "IED_ICT_43",
      "agent289": "IED_ICT_31",
      "agent290": "IED_ICT_96",
      "agent291": "IED_ICT_74",
      "agent292": "IED_ICT_45",
      "agent293": "IED_ICT_13"
  }
}