{
    "only_initial": {
        "far_from_bcu": [86],
        "close_to_bcu": [86],
        "evenly_distributed": [86]
    },
    "35%": {
        "far_from_bcu": [],
        "close_to_bcu": [],
        "evenly_distributed": []
    },
    "70%": {
        "far_from_bcu": [],
        "close_to_bcu": [],
        "evenly_distributed": []
    }
}