{
    "Basestation_Substation": {
        "Basestation_0": [
            "HV1 Bus 17",
            "MV1.101 busbar1.1",
            "MV1.101 Bus 4",
            "MV1.101 Bus 5",
            "MV1.101 Bus 6",
            "MV1.101 Bus 16",
            "MV1.101 Bus 17",
            "MV1.101 Bus 18",
            "MV1.101 Bus 19",
            "MV1.101 Bus 25",
            "MV1.101 Bus 26",
            "MV1.101 Bus 27",
            "MV1.101 Bus 30",
            "MV1.101 Bus 31",
            "MV1.101 Bus 32",
            "MV1.101 Bus 33",
            "MV1.101 Bus 34",
            "MV1.101 Bus 40",
            "MV1.101 Bus 41",
            "MV1.101 Bus 48",
            "MV1.101 Bus 49",
            "MV1.101 Bus 50",
            "MV1.101 Bus 71",
            "MV1.101 Bus 77",
            "MV1.101 Bus 78",
            "MV1.101 Bus 79",
            "MV1.101 Bus 80",
            "MV1.101 Bus 81",
            "MV1.101 Bus 82",
            "MV1.101 Bus 83",
            "MV1.101 Bus 84",
            "MV1.101 Bus 85",
            "MV1.101 Bus 86",
            "MV1.101 Bus 87",
            "MV1.101 Bus 88",
            "MV1.101 Bus 77_1"
        ],
        "Basestation_1": [
            "MV1.101 Bus 20",
            "MV1.101 Bus 21",
            "MV1.101 Bus 22",
            "MV1.101 Bus 23",
            "MV1.101 Bus 24"
        ],
        "Basestation_2": [
            "HV1 Bus 17",
            "MV1.101 busbar1.1",
            "MV1.101 Bus 4",
            "MV1.101 Bus 5",
            "MV1.101 Bus 6",
            "MV1.101 Bus 7",
            "MV1.101 Bus 8",
            "MV1.101 Bus 9",
            "MV1.101 Bus 10",
            "MV1.101 Bus 11",
            "MV1.101 Bus 12",
            "MV1.101 Bus 13",
            "MV1.101 Bus 14",
            "MV1.101 Bus 15",
            "MV1.101 Bus 16",
            "MV1.101 Bus 17",
            "MV1.101 Bus 18",
            "MV1.101 Bus 30",
            "MV1.101 Bus 31",
            "MV1.101 Bus 32",
            "MV1.101 Bus 33",
            "MV1.101 Bus 34",
            "MV1.101 Bus 35",
            "MV1.101 Bus 36",
            "MV1.101 Bus 37",
            "MV1.101 Bus 40",
            "MV1.101 Bus 41",
            "MV1.101 Bus 46",
            "MV1.101 Bus 47",
            "MV1.101 Bus 48",
            "MV1.101 Bus 71",
            "MV1.101 Bus 78",
            "MV1.101 Bus 79",
            "MV1.101 Bus 80",
            "MV1.101 Bus 81",
            "MV1.101 Bus 82",
            "MV1.101 Bus 83",
            "MV1.101 Bus 84",
            "MV1.101 Bus 85",
            "MV1.101 Bus 86",
            "MV1.101 Bus 87",
            "MV1.101 Bus 47_1",
            "MV1.101 Bus 11_1"
        ],
        "Basestation_3": [
            "MV1.101 Bus 72",
            "MV1.101 Bus 73",
            "MV1.101 Bus 74",
            "MV1.101 Bus 88",
            "MV1.101 Bus 89",
            "MV1.101 Bus 90",
            "MV1.101 Bus 91",
            "MV1.101 Bus 92"
        ],
        "Basestation_4": [
            "MV1.101 Bus 89",
            "MV1.101 Bus 90"
        ],
        "Basestation_5": [
            "MV1.101 Bus 8",
            "MV1.101 Bus 9",
            "MV1.101 Bus 10",
            "MV1.101 Bus 11",
            "MV1.101 Bus 12",
            "MV1.101 Bus 14",
            "MV1.101 Bus 15",
            "MV1.101 Bus 47",
            "MV1.101 Bus 47_1",
            "MV1.101 Bus 11_1"
        ],
        "Basestation_6": [
            "MV1.101 Bus 45",
            "MV1.101 Bus 46"
        ],
        "Basestation_7": [
            "MV1.101 Bus 32",
            "MV1.101 Bus 33",
            "MV1.101 Bus 34",
            "MV1.101 Bus 35",
            "MV1.101 Bus 36",
            "MV1.101 Bus 37",
            "MV1.101 Bus 38",
            "MV1.101 Bus 39",
            "MV1.101 Bus 88",
            "MV1.101 Bus 89",
            "MV1.101 Bus 90",
            "MV1.101 Bus 93",
            "MV1.101 Bus 94",
            "MV1.101 Bus 95",
            "MV1.101 Bus 96",
            "MV1.101 Bus 96_1"
        ],
        "Basestation_8": [
            "MV1.101 Bus 4",
            "MV1.101 Bus 31",
            "MV1.101 Bus 32",
            "MV1.101 Bus 33",
            "MV1.101 Bus 34",
            "MV1.101 Bus 35",
            "MV1.101 Bus 78",
            "MV1.101 Bus 79",
            "MV1.101 Bus 80",
            "MV1.101 Bus 81",
            "MV1.101 Bus 82",
            "MV1.101 Bus 83",
            "MV1.101 Bus 84",
            "MV1.101 Bus 85",
            "MV1.101 Bus 86",
            "MV1.101 Bus 87",
            "MV1.101 Bus 88"
        ],
        "Basestation_9": [
            "HV1 Bus 17",
            "MV1.101 busbar1.1",
            "MV1.101 Bus 4",
            "MV1.101 Bus 5",
            "MV1.101 Bus 6",
            "MV1.101 Bus 11",
            "MV1.101 Bus 14",
            "MV1.101 Bus 15",
            "MV1.101 Bus 16",
            "MV1.101 Bus 17",
            "MV1.101 Bus 18",
            "MV1.101 Bus 19",
            "MV1.101 Bus 25",
            "MV1.101 Bus 30",
            "MV1.101 Bus 31",
            "MV1.101 Bus 32",
            "MV1.101 Bus 33",
            "MV1.101 Bus 34",
            "MV1.101 Bus 40",
            "MV1.101 Bus 41",
            "MV1.101 Bus 48",
            "MV1.101 Bus 49",
            "MV1.101 Bus 50",
            "MV1.101 Bus 51",
            "MV1.101 Bus 52",
            "MV1.101 Bus 53",
            "MV1.101 Bus 71",
            "MV1.101 Bus 78",
            "MV1.101 Bus 79",
            "MV1.101 Bus 80",
            "MV1.101 Bus 81",
            "MV1.101 Bus 82",
            "MV1.101 Bus 83",
            "MV1.101 Bus 84",
            "MV1.101 Bus 85",
            "MV1.101 Bus 86",
            "MV1.101 Bus 87",
            "MV1.101 Bus 11_1"
        ],
        "Basestation_10": [
            "HV1 Bus 17",
            "MV1.101 busbar1.1",
            "MV1.101 Bus 4",
            "MV1.101 Bus 5",
            "MV1.101 Bus 6",
            "MV1.101 Bus 16",
            "MV1.101 Bus 17",
            "MV1.101 Bus 18",
            "MV1.101 Bus 19",
            "MV1.101 Bus 20",
            "MV1.101 Bus 21",
            "MV1.101 Bus 22",
            "MV1.101 Bus 23",
            "MV1.101 Bus 25",
            "MV1.101 Bus 26",
            "MV1.101 Bus 27",
            "MV1.101 Bus 28",
            "MV1.101 Bus 29",
            "MV1.101 Bus 30",
            "MV1.101 Bus 48",
            "MV1.101 Bus 71",
            "MV1.101 Bus 72",
            "MV1.101 Bus 73",
            "MV1.101 Bus 74",
            "MV1.101 Bus 75",
            "MV1.101 Bus 76",
            "MV1.101 Bus 77",
            "MV1.101 Bus 78",
            "MV1.101 Bus 79",
            "MV1.101 Bus 80",
            "MV1.101 Bus 81",
            "MV1.101 Bus 82",
            "MV1.101 Bus 83",
            "MV1.101 Bus 84",
            "MV1.101 Bus 85",
            "MV1.101 Bus 86",
            "MV1.101 Bus 87",
            "MV1.101 Bus 88",
            "MV1.101 Bus 77_1"
        ],
        "Basestation_11": [
            "MV1.101 Bus 25",
            "MV1.101 Bus 26",
            "MV1.101 Bus 27",
            "MV1.101 Bus 29",
            "MV1.101 Bus 71",
            "MV1.101 Bus 72",
            "MV1.101 Bus 73",
            "MV1.101 Bus 74",
            "MV1.101 Bus 75",
            "MV1.101 Bus 76",
            "MV1.101 Bus 77",
            "MV1.101 Bus 82",
            "MV1.101 Bus 83",
            "MV1.101 Bus 84",
            "MV1.101 Bus 85",
            "MV1.101 Bus 86",
            "MV1.101 Bus 87",
            "MV1.101 Bus 88",
            "MV1.101 Bus 77_1"
        ],
        "Basestation_12": [
            "MV1.101 Bus 36",
            "MV1.101 Bus 37",
            "MV1.101 Bus 38",
            "MV1.101 Bus 39",
            "MV1.101 Bus 89",
            "MV1.101 Bus 90",
            "MV1.101 Bus 91",
            "MV1.101 Bus 92",
            "MV1.101 Bus 93",
            "MV1.101 Bus 94",
            "MV1.101 Bus 95",
            "MV1.101 Bus 96",
            "MV1.101 Bus 96_1"
        ],
        "Basestation_13": [
            "MV1.101 Bus 20",
            "MV1.101 Bus 21",
            "MV1.101 Bus 22",
            "MV1.101 Bus 23",
            "MV1.101 Bus 24"
        ],
        "Basestation_14": [
            "MV1.101 Bus 14",
            "MV1.101 Bus 15",
            "MV1.101 Bus 40",
            "MV1.101 Bus 41"
        ],
        "Basestation_15": [
            "HV1 Bus 17",
            "MV1.101 busbar1.1",
            "MV1.101 Bus 4",
            "MV1.101 Bus 5",
            "MV1.101 Bus 6",
            "MV1.101 Bus 16",
            "MV1.101 Bus 17",
            "MV1.101 Bus 18",
            "MV1.101 Bus 30",
            "MV1.101 Bus 31",
            "MV1.101 Bus 32",
            "MV1.101 Bus 33",
            "MV1.101 Bus 40",
            "MV1.101 Bus 41",
            "MV1.101 Bus 48",
            "MV1.101 Bus 78",
            "MV1.101 Bus 79",
            "MV1.101 Bus 80",
            "MV1.101 Bus 81",
            "MV1.101 Bus 82",
            "MV1.101 Bus 83",
            "MV1.101 Bus 84",
            "MV1.101 Bus 85"
        ],
        "Basestation_16": [
            "MV1.101 Bus 24",
            "MV1.101 Bus 60",
            "MV1.101 Bus 61",
            "MV1.101 Bus 62",
            "MV1.101 Bus 63",
            "MV1.101 Bus 64",
            "MV1.101 Bus 65",
            "MV1.101 Bus 66",
            "MV1.101 Bus 67",
            "MV1.101 Bus 68",
            "MV1.101 Bus 63_1",
            "MV1.101 Bus 63_2"
        ],
        "Basestation_17": [
            "HV1 Bus 17",
            "MV1.101 busbar1.1",
            "MV1.101 Bus 16",
            "MV1.101 Bus 17",
            "MV1.101 Bus 18",
            "MV1.101 Bus 19",
            "MV1.101 Bus 25",
            "MV1.101 Bus 26",
            "MV1.101 Bus 27",
            "MV1.101 Bus 28",
            "MV1.101 Bus 29",
            "MV1.101 Bus 71",
            "MV1.101 Bus 72",
            "MV1.101 Bus 73",
            "MV1.101 Bus 74",
            "MV1.101 Bus 75",
            "MV1.101 Bus 76",
            "MV1.101 Bus 77",
            "MV1.101 Bus 78",
            "MV1.101 Bus 79",
            "MV1.101 Bus 80",
            "MV1.101 Bus 81",
            "MV1.101 Bus 82",
            "MV1.101 Bus 83",
            "MV1.101 Bus 84",
            "MV1.101 Bus 85",
            "MV1.101 Bus 86",
            "MV1.101 Bus 87",
            "MV1.101 Bus 88",
            "MV1.101 Bus 77_1"
        ],
        "Basestation_18": [
            "HV1 Bus 17",
            "MV1.101 busbar1.1",
            "MV1.101 Bus 4",
            "MV1.101 Bus 5",
            "MV1.101 Bus 6",
            "MV1.101 Bus 7",
            "MV1.101 Bus 8",
            "MV1.101 Bus 9",
            "MV1.101 Bus 10",
            "MV1.101 Bus 11",
            "MV1.101 Bus 12",
            "MV1.101 Bus 13",
            "MV1.101 Bus 14",
            "MV1.101 Bus 15",
            "MV1.101 Bus 16",
            "MV1.101 Bus 17",
            "MV1.101 Bus 30",
            "MV1.101 Bus 31",
            "MV1.101 Bus 32",
            "MV1.101 Bus 33",
            "MV1.101 Bus 40",
            "MV1.101 Bus 41",
            "MV1.101 Bus 47",
            "MV1.101 Bus 48",
            "MV1.101 Bus 78",
            "MV1.101 Bus 79",
            "MV1.101 Bus 80",
            "MV1.101 Bus 47_1",
            "MV1.101 Bus 11_1"
        ],
        "Basestation_19": [
            "MV1.101 Bus 31",
            "MV1.101 Bus 32",
            "MV1.101 Bus 33",
            "MV1.101 Bus 34",
            "MV1.101 Bus 35",
            "MV1.101 Bus 36",
            "MV1.101 Bus 37",
            "MV1.101 Bus 38",
            "MV1.101 Bus 39"
        ],
        "Basestation_20": [
            "MV1.101 Bus 7",
            "MV1.101 Bus 8",
            "MV1.101 Bus 9",
            "MV1.101 Bus 10",
            "MV1.101 Bus 11",
            "MV1.101 Bus 12",
            "MV1.101 Bus 13",
            "MV1.101 Bus 14",
            "MV1.101 Bus 15",
            "MV1.101 Bus 42",
            "MV1.101 Bus 43",
            "MV1.101 Bus 44",
            "MV1.101 Bus 45",
            "MV1.101 Bus 46",
            "MV1.101 Bus 47",
            "MV1.101 Bus 47_1",
            "MV1.101 Bus 11_1"
        ],
        "Basestation_21": [
            "MV1.101 Bus 20",
            "MV1.101 Bus 21",
            "MV1.101 Bus 22",
            "MV1.101 Bus 23",
            "MV1.101 Bus 24",
            "MV1.101 Bus 60",
            "MV1.101 Bus 61",
            "MV1.101 Bus 62",
            "MV1.101 Bus 63",
            "MV1.101 Bus 64",
            "MV1.101 Bus 63_1",
            "MV1.101 Bus 63_2"
        ],
        "Basestation_22": [
            "MV1.101 Bus 51",
            "MV1.101 Bus 52",
            "MV1.101 Bus 53",
            "MV1.101 Bus 54",
            "MV1.101 Bus 55",
            "MV1.101 Bus 56",
            "MV1.101 Bus 57",
            "MV1.101 Bus 58",
            "MV1.101 Bus 59",
            "MV1.101 Bus 69",
            "MV1.101 Bus 70"
        ],
        "Basestation_23": [
            "MV1.101 Bus 35",
            "MV1.101 Bus 36",
            "MV1.101 Bus 37",
            "MV1.101 Bus 38",
            "MV1.101 Bus 39",
            "MV1.101 Bus 88",
            "MV1.101 Bus 89",
            "MV1.101 Bus 90",
            "MV1.101 Bus 91",
            "MV1.101 Bus 92",
            "MV1.101 Bus 93",
            "MV1.101 Bus 94",
            "MV1.101 Bus 95",
            "MV1.101 Bus 96",
            "MV1.101 Bus 96_1"
        ],
        "Basestation_24": [
            "MV1.101 Bus 19",
            "MV1.101 Bus 20",
            "MV1.101 Bus 21",
            "MV1.101 Bus 25",
            "MV1.101 Bus 26",
            "MV1.101 Bus 27",
            "MV1.101 Bus 29",
            "MV1.101 Bus 71",
            "MV1.101 Bus 76",
            "MV1.101 Bus 77",
            "MV1.101 Bus 77_1"
        ],
        "Basestation_25": [
            "MV1.101 Bus 20",
            "MV1.101 Bus 21",
            "MV1.101 Bus 22",
            "MV1.101 Bus 23",
            "MV1.101 Bus 24",
            "MV1.101 Bus 49",
            "MV1.101 Bus 50",
            "MV1.101 Bus 51",
            "MV1.101 Bus 52",
            "MV1.101 Bus 53",
            "MV1.101 Bus 54",
            "MV1.101 Bus 55",
            "MV1.101 Bus 56",
            "MV1.101 Bus 57",
            "MV1.101 Bus 58",
            "MV1.101 Bus 59",
            "MV1.101 Bus 60",
            "MV1.101 Bus 61",
            "MV1.101 Bus 62",
            "MV1.101 Bus 69",
            "MV1.101 Bus 70"
        ],
        "Basestation_26": [
            "MV1.101 Bus 72",
            "MV1.101 Bus 73",
            "MV1.101 Bus 74",
            "MV1.101 Bus 89",
            "MV1.101 Bus 90",
            "MV1.101 Bus 91",
            "MV1.101 Bus 92"
        ],
        "Basestation_27": [
            "MV1.101 Bus 24",
            "MV1.101 Bus 60",
            "MV1.101 Bus 61",
            "MV1.101 Bus 62",
            "MV1.101 Bus 63",
            "MV1.101 Bus 64",
            "MV1.101 Bus 65",
            "MV1.101 Bus 66",
            "MV1.101 Bus 67",
            "MV1.101 Bus 68",
            "MV1.101 Bus 63_1",
            "MV1.101 Bus 63_2"
        ],
        "Basestation_28": [
            "MV1.101 Bus 7",
            "MV1.101 Bus 8",
            "MV1.101 Bus 9",
            "MV1.101 Bus 10",
            "MV1.101 Bus 11",
            "MV1.101 Bus 12",
            "MV1.101 Bus 14",
            "MV1.101 Bus 15",
            "MV1.101 Bus 40",
            "MV1.101 Bus 41",
            "MV1.101 Bus 42",
            "MV1.101 Bus 43",
            "MV1.101 Bus 47",
            "MV1.101 Bus 47_1",
            "MV1.101 Bus 11_1"
        ],
        "Basestation_29": [
            "MV1.101 Bus 25",
            "MV1.101 Bus 26",
            "MV1.101 Bus 27",
            "MV1.101 Bus 28",
            "MV1.101 Bus 29",
            "MV1.101 Bus 71",
            "MV1.101 Bus 72",
            "MV1.101 Bus 73",
            "MV1.101 Bus 74",
            "MV1.101 Bus 75",
            "MV1.101 Bus 76",
            "MV1.101 Bus 77",
            "MV1.101 Bus 77_1"
        ]
    },
    "Basestation_Basestation": {
        "link_0": [
            "Basestation_0",
            "Basestation_2"
        ],
        "link_1": [
            "Basestation_0",
            "Basestation_8"
        ],
        "link_2": [
            "Basestation_0",
            "Basestation_9"
        ],
        "link_3": [
            "Basestation_0",
            "Basestation_10"
        ],
        "link_4": [
            "Basestation_0",
            "Basestation_11"
        ],
        "link_5": [
            "Basestation_0",
            "Basestation_14"
        ],
        "link_6": [
            "Basestation_0",
            "Basestation_15"
        ],
        "link_7": [
            "Basestation_0",
            "Basestation_17"
        ],
        "link_8": [
            "Basestation_0",
            "Basestation_18"
        ],
        "link_9": [
            "Basestation_0",
            "Basestation_24"
        ],
        "link_10": [
            "Basestation_1",
            "Basestation_10"
        ],
        "link_11": [
            "Basestation_1",
            "Basestation_13"
        ],
        "link_12": [
            "Basestation_1",
            "Basestation_21"
        ],
        "link_13": [
            "Basestation_1",
            "Basestation_24"
        ],
        "link_14": [
            "Basestation_1",
            "Basestation_29"
        ],
        "link_15": [
            "Basestation_2",
            "Basestation_5"
        ],
        "link_16": [
            "Basestation_2",
            "Basestation_8"
        ],
        "link_17": [
            "Basestation_2",
            "Basestation_9"
        ],
        "link_18": [
            "Basestation_2",
            "Basestation_14"
        ],
        "link_19": [
            "Basestation_2",
            "Basestation_15"
        ],
        "link_20": [
            "Basestation_2",
            "Basestation_18"
        ],
        "link_21": [
            "Basestation_2",
            "Basestation_19"
        ],
        "link_22": [
            "Basestation_2",
            "Basestation_28"
        ],
        "link_23": [
            "Basestation_3",
            "Basestation_4"
        ],
        "link_24": [
            "Basestation_3",
            "Basestation_7"
        ],
        "link_25": [
            "Basestation_3",
            "Basestation_12"
        ],
        "link_26": [
            "Basestation_3",
            "Basestation_23"
        ],
        "link_27": [
            "Basestation_3",
            "Basestation_26"
        ],
        "link_28": [
            "Basestation_4",
            "Basestation_12"
        ],
        "link_29": [
            "Basestation_4",
            "Basestation_23"
        ],
        "link_30": [
            "Basestation_4",
            "Basestation_26"
        ],
        "link_31": [
            "Basestation_5",
            "Basestation_9"
        ],
        "link_32": [
            "Basestation_5",
            "Basestation_14"
        ],
        "link_33": [
            "Basestation_5",
            "Basestation_18"
        ],
        "link_34": [
            "Basestation_5",
            "Basestation_20"
        ],
        "link_35": [
            "Basestation_5",
            "Basestation_28"
        ],
        "link_36": [
            "Basestation_6",
            "Basestation_20"
        ],
        "link_37": [
            "Basestation_7",
            "Basestation_8"
        ],
        "link_38": [
            "Basestation_7",
            "Basestation_12"
        ],
        "link_39": [
            "Basestation_7",
            "Basestation_19"
        ],
        "link_40": [
            "Basestation_7",
            "Basestation_23"
        ],
        "link_41": [
            "Basestation_8",
            "Basestation_10"
        ],
        "link_42": [
            "Basestation_8",
            "Basestation_19"
        ],
        "link_43": [
            "Basestation_8",
            "Basestation_23"
        ],
        "link_44": [
            "Basestation_9",
            "Basestation_14"
        ],
        "link_45": [
            "Basestation_9",
            "Basestation_15"
        ],
        "link_46": [
            "Basestation_9",
            "Basestation_18"
        ],
        "link_47": [
            "Basestation_9",
            "Basestation_25"
        ],
        "link_48": [
            "Basestation_9",
            "Basestation_28"
        ],
        "link_49": [
            "Basestation_10",
            "Basestation_11"
        ],
        "link_50": [
            "Basestation_10",
            "Basestation_13"
        ],
        "link_51": [
            "Basestation_10",
            "Basestation_17"
        ],
        "link_52": [
            "Basestation_10",
            "Basestation_24"
        ],
        "link_53": [
            "Basestation_10",
            "Basestation_29"
        ],
        "link_54": [
            "Basestation_11",
            "Basestation_17"
        ],
        "link_55": [
            "Basestation_11",
            "Basestation_24"
        ],
        "link_56": [
            "Basestation_11",
            "Basestation_29"
        ],
        "link_57": [
            "Basestation_12",
            "Basestation_23"
        ],
        "link_58": [
            "Basestation_12",
            "Basestation_26"
        ],
        "link_59": [
            "Basestation_13",
            "Basestation_21"
        ],
        "link_60": [
            "Basestation_13",
            "Basestation_24"
        ],
        "link_61": [
            "Basestation_14",
            "Basestation_15"
        ],
        "link_62": [
            "Basestation_14",
            "Basestation_18"
        ],
        "link_63": [
            "Basestation_14",
            "Basestation_28"
        ],
        "link_64": [
            "Basestation_15",
            "Basestation_18"
        ],
        "link_65": [
            "Basestation_16",
            "Basestation_21"
        ],
        "link_66": [
            "Basestation_16",
            "Basestation_27"
        ],
        "link_67": [
            "Basestation_17",
            "Basestation_24"
        ],
        "link_68": [
            "Basestation_17",
            "Basestation_29"
        ],
        "link_69": [
            "Basestation_18",
            "Basestation_28"
        ],
        "link_70": [
            "Basestation_19",
            "Basestation_23"
        ],
        "link_71": [
            "Basestation_20",
            "Basestation_28"
        ],
        "link_72": [
            "Basestation_21",
            "Basestation_25"
        ],
        "link_73": [
            "Basestation_22",
            "Basestation_25"
        ],
        "link_74": [
            "Basestation_23",
            "Basestation_26"
        ],
        "link_75": [
            "Basestation_24",
            "Basestation_29"
        ]
    },
    "Basestation_Bus": {
        "Basestation_0": "18",
        "Basestation_1": "21",
        "Basestation_2": "31",
        "Basestation_3": "90",
        "Basestation_4": "90",
        "Basestation_5": "15",
        "Basestation_6": "45",
        "Basestation_7": "37",
        "Basestation_8": "34",
        "Basestation_9": "49",
        "Basestation_10": "27",
        "Basestation_11": "77",
        "Basestation_12": "91",
        "Basestation_13": "21",
        "Basestation_14": "41",
        "Basestation_15": "6",
        "Basestation_16": "68",
        "Basestation_17": "77",
        "Basestation_18": "14",
        "Basestation_19": "35",
        "Basestation_20": "44",
        "Basestation_21": "24",
        "Basestation_22": "58",
        "Basestation_23": "90",
        "Basestation_24": "27",
        "Basestation_25": "56",
        "Basestation_26": "90",
        "Basestation_27": "68",
        "Basestation_28": "14",
        "Basestation_29": "29"
    }
}