{
    "ied_substation": {
        "MV1.101 Bus 4": [
            "IED_Load_4",
            "IED_SGen_4",
            "IED_Switch_4",
            "IED_ICT_4"
        ],
        "MV1.101 Bus 5": [
            "IED_Load_5",
            "IED_SGen_5",
            "IED_Switch_5"
        ],
        "MV1.101 Bus 6": [
            "IED_Load_6",
            "IED_SGen_6",
            "IED_Switch_6"
        ],
        "MV1.101 Bus 7": [
            "IED_Load_7",
            "IED_SGen_7",
            "IED_Switch_7"
        ],
        "MV1.101 Bus 8": [
            "IED_Load_8",
            "IED_SGen_8",
            "IED_Switch_8"
        ],
        "MV1.101 Bus 9": [
            "IED_Load_9",
            "IED_SGen_9",
            "IED_Switch_9"
        ],
        "MV1.101 Bus 10": [
            "IED_Load_10",
            "IED_SGen_10",
            "IED_Switch_10"
        ],
        "MV1.101 Bus 11": [
            "IED_Load_11",
            "IED_SGen_11",
            "IED_Switch_11"
        ],
        "MV1.101 Bus 12": [
            "IED_Load_12",
            "IED_SGen_12",
            "IED_Switch_12"
        ],
        "MV1.101 Bus 13": [
            "IED_Load_13",
            "IED_SGen_13",
            "IED_Switch_13"
        ],
        "MV1.101 Bus 14": [
            "IED_SGen_14",
            "IED_Switch_14"
        ],
        "MV1.101 Bus 15": [
            "IED_Load_15",
            "IED_SGen_15",
            "IED_Switch_15"
        ],
        "MV1.101 Bus 16": [
            "IED_Load_16",
            "IED_SGen_16",
            "IED_Switch_16"
        ],
        "MV1.101 Bus 17": [
            "IED_Load_17",
            "IED_SGen_17",
            "IED_Switch_17"
        ],
        "MV1.101 Bus 18": [
            "IED_Load_18",
            "IED_SGen_18",
            "IED_Switch_18"
        ],
        "MV1.101 Bus 19": [
            "IED_Load_19",
            "IED_SGen_19",
            "IED_Switch_19",
            "IED_ICT_19"
        ],
        "MV1.101 Bus 20": [
            "IED_Load_20",
            "IED_SGen_20",
            "IED_Switch_20"
        ],
        "MV1.101 Bus 21": [
            "IED_Load_21",
            "IED_SGen_21",
            "IED_Switch_21"
        ],
        "MV1.101 Bus 22": [
            "IED_Load_22",
            "IED_SGen_22",
            "IED_Switch_22"
        ],
        "MV1.101 Bus 23": [
            "IED_Load_23",
            "IED_SGen_23",
            "IED_Switch_23"
        ],
        "MV1.101 Bus 24": [
            "IED_Load_24",
            "IED_SGen_24",
            "IED_Switch_24",
            "IED_ICT_24"
        ],
        "MV1.101 Bus 25": [
            "IED_Load_25",
            "IED_SGen_25",
            "IED_Switch_25"
        ],
        "MV1.101 Bus 26": [
            "IED_Load_26",
            "IED_SGen_26.1",
            "IED_SGen_26.2",
            "IED_Switch_26"
        ],
        "MV1.101 Bus 27": [
            "IED_Load_27",
            "IED_SGen_27",
            "IED_Switch_27",
            "IED_ICT_27"
        ],
        "MV1.101 Bus 28": [
            "IED_Load_28",
            "IED_SGen_28.1",
            "IED_SGen_28.2",
            "IED_Switch_28"
        ],
        "MV1.101 Bus 29": [
            "IED_Load_29",
            "IED_SGen_29",
            "IED_Switch_29"
        ],
        "MV1.101 Bus 30": [
            "IED_Load_30",
            "IED_SGen_30",
            "IED_Switch_30",
            "IED_ICT_30"
        ],
        "MV1.101 Bus 31": [
            "IED_Load_31",
            "IED_SGen_31",
            "IED_Switch_31"
        ],
        "MV1.101 Bus 32": [
            "IED_Load_32",
            "IED_SGen_32",
            "IED_Switch_32"
        ],
        "MV1.101 Bus 33": [
            "IED_Load_33",
            "IED_SGen_33",
            "IED_Switch_33"
        ],
        "MV1.101 Bus 34": [
            "IED_Load_34",
            "IED_SGen_34",
            "IED_Switch_34"
        ],
        "MV1.101 Bus 35": [
            "IED_Load_35",
            "IED_SGen_35",
            "IED_Switch_35",
            "IED_ICT_35"
        ],
        "MV1.101 Bus 36": [
            "IED_Load_36",
            "IED_SGen_36",
            "IED_Switch_36"
        ],
        "MV1.101 Bus 37": [
            "IED_Load_37",
            "IED_SGen_37",
            "IED_Switch_37"
        ],
        "MV1.101 Bus 38": [
            "IED_Load_38",
            "IED_SGen_38",
            "IED_Switch_38"
        ],
        "MV1.101 Bus 39": [
            "IED_Load_39",
            "IED_SGen_39",
            "IED_Switch_39",
            "IED_ICT_39"
        ],
        "MV1.101 Bus 40": [
            "IED_Load_40",
            "IED_SGen_40",
            "IED_Switch_40"
        ],
        "MV1.101 Bus 41": [
            "IED_Load_41",
            "IED_SGen_41.1",
            "IED_SGen_41.2",
            "IED_Switch_41"
        ],
        "MV1.101 Bus 42": [
            "IED_Load_42",
            "IED_SGen_42",
            "IED_Switch_42"
        ],
        "MV1.101 Bus 43": [
            "IED_Load_43",
            "IED_SGen_43",
            "IED_Switch_43"
        ],
        "MV1.101 Bus 44": [
            "IED_Load_44",
            "IED_SGen_44.1",
            "IED_SGen_44.2",
            "IED_Switch_44"
        ],
        "MV1.101 Bus 45": [
            "IED_Load_45",
            "IED_SGen_45",
            "IED_Switch_45",
            "IED_ICT_45"
        ],
        "MV1.101 Bus 46": [
            "IED_Load_46",
            "IED_SGen_46.1",
            "IED_SGen_46.2",
            "IED_Switch_46"
        ],
        "MV1.101 Bus 47": [
            "IED_Load_47",
            "IED_SGen_47",
            "IED_Switch_47",
            "IED_ICT_47"
        ],
        "MV1.101 Bus 48": [
            "IED_Load_48",
            "IED_SGen_48",
            "IED_Switch_48",
            "IED_ICT_48"
        ],
        "MV1.101 Bus 49": [
            "IED_Load_49",
            "IED_SGen_49.1",
            "IED_SGen_49.2",
            "IED_Switch_49"
        ],
        "MV1.101 Bus 50": [
            "IED_Load_50",
            "IED_SGen_50",
            "IED_Switch_50"
        ],
        "MV1.101 Bus 51": [
            "IED_Load_51",
            "IED_SGen_51",
            "IED_Switch_51",
            "IED_ICT_51"
        ],
        "MV1.101 Bus 52": [
            "IED_Load_52",
            "IED_SGen_52",
            "IED_Switch_52"
        ],
        "MV1.101 Bus 53": [
            "IED_Load_53",
            "IED_SGen_53",
            "IED_Switch_53"
        ],
        "MV1.101 Bus 54": [
            "IED_Load_54",
            "IED_SGen_54",
            "IED_Switch_54"
        ],
        "MV1.101 Bus 55": [
            "IED_Load_55",
            "IED_SGen_55",
            "IED_Switch_55"
        ],
        "MV1.101 Bus 56": [
            "IED_Load_56",
            "IED_SGen_56",
            "IED_Switch_56"
        ],
        "MV1.101 Bus 57": [
            "IED_Load_57",
            "IED_SGen_57",
            "IED_Switch_57"
        ],
        "MV1.101 Bus 58": [
            "IED_Load_58",
            "IED_SGen_58",
            "IED_Switch_58"
        ],
        "MV1.101 Bus 59": [
            "IED_Load_59",
            "IED_SGen_59.1",
            "IED_SGen_59.2",
            "IED_Switch_59"
        ],
        "MV1.101 Bus 60": [
            "IED_Load_60",
            "IED_SGen_60",
            "IED_Switch_60",
            "IED_ICT_60"
        ],
        "MV1.101 Bus 61": [
            "IED_Load_61",
            "IED_SGen_61.1",
            "IED_SGen_61.2",
            "IED_Switch_61"
        ],
        "MV1.101 Bus 62": [
            "IED_Load_62",
            "IED_SGen_62",
            "IED_Switch_62"
        ],
        "MV1.101 Bus 63": [
            "IED_Load_63",
            "IED_SGen_63",
            "IED_Switch_63"
        ],
        "MV1.101 Bus 64": [
            "IED_Load_64",
            "IED_SGen_64",
            "IED_Switch_64"
        ],
        "MV1.101 Bus 65": [
            "IED_Load_65",
            "IED_SGen_65",
            "IED_Switch_65",
            "IED_ICT_65"
        ],
        "MV1.101 Bus 66": [
            "IED_Load_66",
            "IED_SGen_66",
            "IED_Switch_66"
        ],
        "MV1.101 Bus 67": [
            "IED_Load_67",
            "IED_SGen_67",
            "IED_Switch_67",
            "IED_ICT_67"
        ],
        "MV1.101 Bus 68": [
            "IED_Load_68",
            "IED_SGen_68",
            "IED_Switch_68"
        ],
        "MV1.101 Bus 69": [
            "IED_SGen_69",
            "IED_Switch_69",
            "IED_ICT_69"
        ],
        "MV1.101 Bus 70": [
            "IED_Load_70",
            "IED_SGen_70",
            "IED_Switch_70",
            "IED_ICT_70"
        ],
        "MV1.101 Bus 71": [
            "IED_Load_71",
            "IED_SGen_71",
            "IED_Switch_71"
        ],
        "MV1.101 Bus 72": [
            "IED_Load_72",
            "IED_SGen_72",
            "IED_Switch_72"
        ],
        "MV1.101 Bus 73": [
            "IED_Load_73",
            "IED_SGen_73",
            "IED_Switch_73"
        ],
        "MV1.101 Bus 74": [
            "IED_Load_74",
            "IED_SGen_74",
            "IED_Switch_74"
        ],
        "MV1.101 Bus 75": [
            "IED_Load_75",
            "IED_SGen_75",
            "IED_Switch_75",
            "IED_ICT_75"
        ],
        "MV1.101 Bus 76": [
            "IED_Load_76",
            "IED_SGen_76",
            "IED_Switch_76"
        ],
        "MV1.101 Bus 77": [
            "IED_Load_77",
            "IED_SGen_77",
            "IED_Switch_77"
        ],
        "MV1.101 Bus 78": [
            "IED_Load_78",
            "IED_SGen_78",
            "IED_Switch_78"
        ],
        "MV1.101 Bus 79": [
            "IED_Load_79",
            "IED_SGen_79",
            "IED_Switch_79"
        ],
        "MV1.101 Bus 80": [
            "IED_Load_80",
            "IED_SGen_80",
            "IED_Switch_80"
        ],
        "MV1.101 Bus 81": [
            "IED_Load_81",
            "IED_SGen_81",
            "IED_Switch_81"
        ],
        "MV1.101 Bus 82": [
            "IED_Load_82",
            "IED_SGen_82",
            "IED_Switch_82"
        ],
        "MV1.101 Bus 83": [
            "IED_Load_83",
            "IED_SGen_83",
            "IED_Switch_83"
        ],
        "MV1.101 Bus 84": [
            "IED_Load_84",
            "IED_SGen_84",
            "IED_Switch_84"
        ],
        "MV1.101 Bus 85": [
            "IED_Load_85",
            "IED_SGen_85",
            "IED_Switch_85"
        ],
        "MV1.101 Bus 86": [
            "IED_Load_86",
            "IED_SGen_86",
            "IED_Switch_86"
        ],
        "MV1.101 Bus 87": [
            "IED_Load_87",
            "IED_SGen_87",
            "IED_Switch_87",
            "IED_ICT_87"
        ],
        "MV1.101 Bus 88": [
            "IED_Load_88",
            "IED_SGen_88",
            "IED_Switch_88",
            "IED_ICT_88"
        ],
        "MV1.101 Bus 89": [
            "IED_Load_89",
            "IED_SGen_89",
            "IED_Switch_89"
        ],
        "MV1.101 Bus 90": [
            "IED_Load_90",
            "IED_SGen_90",
            "IED_Switch_90"
        ],
        "MV1.101 Bus 91": [
            "IED_Load_91",
            "IED_SGen_91",
            "IED_Switch_91",
            "IED_ICT_91"
        ],
        "MV1.101 Bus 92": [
            "IED_Load_92",
            "IED_SGen_92",
            "IED_Switch_92"
        ],
        "MV1.101 Bus 93": [
            "IED_Load_93",
            "IED_SGen_93",
            "IED_Switch_93"
        ],
        "MV1.101 Bus 94": [
            "IED_Load_94",
            "IED_SGen_94",
            "IED_Switch_94"
        ],
        "MV1.101 Bus 95": [
            "IED_Load_95",
            "IED_SGen_95",
            "IED_Switch_95"
        ],
        "MV1.101 Bus 96": [
            "IED_Load_96",
            "IED_SGen_96",
            "IED_Switch_96"
        ]
    }
}